177.38.76.153:8080
177.66.116.241:8080
89.28.53.42:8080
201.28.39.6:3128
185.120.36.150:8080
203.76.149.106:8080
144.91.83.127:80
158.140.169.101:8080
179.125.41.225:8080
185.112.35.27:48040
220.132.73.85:80
90.188.35.190:8080
187.188.159.157:999
200.11.138.210:8080
202.152.38.75:52740
36.89.189.11:30132
183.89.61.50:3128
187.9.212.50:3128
203.196.32.61:45305
80.32.122.118:46738
190.236.156.55:8080
103.127.36.166:8080
222.124.193.113:8080
195.78.93.28:3128
109.175.10.239:8080
213.6.227.38:46003
212.126.107.2:31475
180.211.183.2:8080
125.21.43.82:8080
165.16.96.93:8080
185.116.160.166:8080
165.227.84.45:3128
168.228.51.238:8080
203.142.74.171:8888
185.10.166.130:8080
102.23.242.15:8080
176.63.205.248:30616
169.239.182.135:80
183.89.89.149:8080
190.149.221.250:49604
51.91.123.99:3128
150.107.143.221:9797
103.101.104.223:8080
103.75.27.86:80
77.93.42.134:47803
36.92.111.143:8080
46.49.121.187:52101
14.99.38.225:8080
151.80.4.253:3128
51.15.76.119:3128
203.189.147.182:8080
202.152.27.75:8080
94.41.39.119:8080
182.253.234.73:8080
77.245.101.254:8080
118.174.211.220:11
192.162.141.149:3128
187.1.32.34:8080
46.73.33.253:8080
154.66.125.18:8080
200.68.13.26:56000
111.95.22.78:3128
184.82.79.148:8080
125.19.27.2:8080
79.190.145.140:3128
213.16.81.189:54040
190.152.19.54:38791
94.28.78.248:8080
106.10.55.212:3128
113.53.83.157:8080
187.4.201.134:8080
139.255.25.106:8080
200.60.13.122:999
180.183.50.248:8080
51.158.68.133:8811
1.1.168.107:8080
51.158.106.54:8811
46.255.240.228:8080
14.162.146.38:46812
94.130.20.85:31288
118.69.50.153:80
213.100.168.84:38492
180.183.247.10:8080
45.177.223.5:8080
117.196.235.118:8080
113.161.207.105:60626
177.75.136.216:8080
1.179.131.69:8080
203.45.16.197:8080
37.115.13.248:8080
202.150.138.241:8080
89.28.164.55:8080
195.78.112.235:30944
180.180.170.188:8080
185.37.211.222:50330
88.255.217.166:8080
103.3.46.213:80
197.89.175.99:8080
196.27.106.112:8080
183.88.193.242:8080
190.39.129.186:8080
182.23.63.180:3128
88.99.11.16:8080
45.71.185.131:999
190.186.89.150:35759
193.59.27.71:36748
202.147.192.134:8080
194.150.69.119:8080
14.207.74.18:8080
181.49.59.246:8080
51.68.121.144:3128
172.80.253.50:3128
181.196.205.250:44321
54.38.37.42:80
185.42.226.154:8080
195.214.222.75:8080
103.80.81.229:3128
117.212.90.242:8080
51.68.141.240:3128
96.87.184.101:43705
78.189.14.221:8080
110.44.117.26:43922
95.142.219.181:56379
197.210.134.66:8080
120.29.124.131:8080
183.88.16.21:8080
176.103.40.198:40039
115.74.213.139:8080
119.15.95.158:8080
182.52.229.165:8080
36.92.93.253:8080
203.143.31.137:8080
92.46.58.110:48144
117.1.16.131:8080
46.221.9.22:8080
119.252.169.173:8080
43.241.28.55:8080
185.236.39.55:8080
150.107.205.196:8081
202.80.231.67:8080
62.176.12.111:8080
5.58.81.19:8080
181.49.131.82:8080
116.12.83.17:8080
93.99.176.84:3128
185.200.36.91:8080
188.56.199.181:8080
45.175.139.87:999
95.217.95.130:58080
92.84.56.10:51275
14.207.72.67:8080
168.228.192.13:55619
183.89.169.189:8080
95.154.87.90:8080
62.201.220.50:43031
95.104.54.227:42119
176.193.255.162:8080
101.108.125.4:8080
185.238.239.105:8090
185.71.244.59:8080
197.255.60.142:80
190.217.1.115:9991
85.222.191.222:36337
185.99.64.75:52452
90.188.229.62:8080
45.236.170.9:3282
165.227.248.222:3128
91.226.5.245:32238
196.216.220.204:36739
181.10.129.85:8080
86.62.120.68:3128
159.203.30.127:3128
110.170.254.50:8080
180.250.255.179:80
113.161.186.101:8080
181.192.64.70:8080
182.253.252.11:39081
45.168.252.49:8080
5.158.123.153:3128
107.178.6.30:8080
189.204.241.44:56792
43.225.23.26:8080
46.8.28.17:8080
14.207.122.206:8080
202.1.197.227:80
165.73.130.214:8080
125.26.6.98:32385
211.21.120.163:8080
124.120.236.77:8080
201.49.72.226:8080
192.245.60.206:80
200.16.208.187:8080
190.120.249.14:999
14.207.26.145:8080
88.86.204.233:3128
200.195.55.186:8080
183.89.8.211:8080
46.151.60.99:30428
201.220.16.235:8080
115.85.83.197:8080
200.89.174.105:3128
200.35.49.50:3128
58.27.164.38:8080
168.181.196.71:8080
41.139.223.242:47842
5.141.244.52:44087
91.200.114.58:33800
45.70.200.129:999
89.30.96.166:3128
36.66.206.74:8080
77.70.65.131:22
43.245.143.34:8080
24.113.73.230:48678
193.41.79.132:8080
27.145.236.223:8080
177.99.206.82:8080
182.253.223.138:8080
202.134.191.156:8080
41.65.89.61:8080
154.66.240.106:38631
179.27.83.222:54260
36.67.198.35:3128
157.245.124.217:3128
190.3.117.18:8080
176.113.225.69:8080
36.89.119.149:8080
171.5.213.162:8080
202.29.237.212:3128
178.250.88.1:8080
5.58.95.179:8080
117.102.92.219:8080
146.196.108.202:80
182.23.107.210:3128
190.80.11.32:8080
119.42.86.254:8080
182.23.81.82:3128
1.20.217.221:8080
36.67.80.19:8080
200.216.182.118:8080
41.180.64.254:80
89.151.135.90:8080
177.66.73.57:8080
103.87.164.44:8080
138.122.143.200:3128
200.5.125.37:8080
176.235.90.242:8080
85.90.215.101:3128
190.152.5.126:53040
212.93.98.101:8080
177.136.252.7:3128
46.167.211.215:8080
158.255.249.58:38914
109.239.255.33:8888
159.192.136.166:8080
27.111.44.202:80
138.197.5.192:8888
202.7.54.35:8080
185.218.191.4:8080
45.235.86.1:51996
177.200.107.43:8080
36.90.164.225:3128
45.224.149.182:999
110.77.226.32:8080
41.73.15.130:80
74.209.191.66:8090
45.6.62.29:80
177.19.212.90:8080
36.90.18.116:8181
27.72.72.48:35839
84.22.45.81:8080
114.5.99.170:8080
198.23.143.11:8080
1.0.209.159:8080
154.117.143.126:8080
95.137.240.3:35632
110.232.67.20:8080
51.254.101.63:80
89.37.122.216:3129
103.130.114.122:46561
177.184.66.13:8080
202.147.195.158:8080
138.94.91.2:8080
154.117.181.34:38975
114.5.128.18:50565
171.100.221.15:8080
75.151.213.85:8080
182.53.50.98:8081
115.74.201.137:42108
85.90.222.215:8080
180.242.74.126:8080
142.93.125.157:80
185.242.180.219:8080
186.249.192.102:8080
212.46.255.78:8080
36.67.158.49:65301
193.193.71.178:43857
14.207.207.201:8080
178.251.43.122:8080
188.242.5.172:8080
220.247.172.84:8080
206.189.151.26:8080
78.8.188.100:32040
128.199.252.41:3128
82.114.70.2:8080
184.82.233.252:3128
139.228.48.104:8080
95.80.98.41:8080
185.123.233.215:8080
208.97.133.64:80
27.50.21.10:8080
139.255.115.140:8080
177.92.241.19:8080
118.174.211.220:11
111.67.71.122:8080
156.155.2.69:8080
198.23.143.11:8080
186.10.82.22:52049
78.186.194.45:8080
178.205.254.106:8080
190.0.244.253:8080
180.183.135.174:8080
183.88.220.245:8080
36.90.122.68:8181
35.161.196.208:80
110.170.254.50:8080
140.227.52.41:6000
140.227.176.104:80
180.253.248.207:8080
104.220.227.154:80
36.89.106.247:43184
87.247.19.126:53353
41.60.216.191:8080
178.33.44.77:80
62.159.156.144:80
212.220.216.70:8080
163.53.185.18:8080
87.251.228.114:31793
193.193.240.34:45944
125.25.161.189:8080
190.152.12.54:41031
190.84.232.82:8080
163.172.28.22:80
139.5.223.57:8080
94.79.4.53:8080
151.80.135.147:3128
165.227.84.45:80
117.197.127.98:8080
95.71.126.66:8080
91.217.42.2:8080
189.204.241.44:56792
177.225.103.99:8080
47.56.4.34:80
202.147.198.115:8080
14.207.56.31:8080
138.197.5.192:8888
197.157.255.38:8080
103.72.218.158:8080
196.202.44.155:8080
185.121.2.31:8080
222.124.142.66:8080
52.43.43.201:80
67.60.137.219:35979
14.182.0.245:8080
118.99.93.160:8080
157.245.244.123:3128
91.121.76.179:80
168.228.192.13:55619
180.222.142.234:8080
73.167.84.250:3128
41.188.5.110:8080
103.235.199.93:35947
31.131.67.14:8080
51.68.141.240:3128
188.6.197.119:30742
73.138.75.151:8080
27.72.29.159:8080
101.255.125.10:8080
51.255.20.138:80
59.52.186.159:3128
159.224.166.129:50270
212.175.167.137:80
2.139.189.242:8080
24.113.73.230:48678
211.21.120.163:8080
185.10.166.130:8080
190.217.80.156:999
190.104.215.14:54889
36.89.99.93:8080
82.200.233.4:3128
200.123.2.171:3128
202.75.154.56:8080
41.73.15.130:80
139.255.160.140:8080
31.192.42.150:60174
185.69.198.250:8080
73.239.197.175:8080
185.104.252.9:9090
185.33.34.76:42293
104.245.228.65:8080
37.57.216.4:4444
41.217.216.45:33602
208.67.183.240:80
210.48.204.134:54085
18.130.128.152:80
91.194.42.51:80
181.196.244.182:48241
212.87.255.2:8060
190.52.193.114:80
154.79.244.66:34130
142.93.113.38:8888
46.246.93.89:8080
118.96.132.119:8080
183.89.14.54:8080
41.60.218.10:8080
186.47.46.30:33556
89.165.218.82:47886
78.60.203.75:60401
188.252.64.154:60446
202.62.103.206:8080
36.92.88.51:8080
61.247.10.217:8080
187.19.165.167:8080
185.71.244.59:8080
36.67.38.135:8080
159.203.30.127:3128
45.166.86.6:8080
36.66.140.15:8080
114.199.123.194:8080
192.162.62.197:59246
36.69.121.196:8080
45.71.185.131:999
173.46.67.172:58517
118.97.53.99:31439
86.105.51.76:3128
176.108.47.38:3128
169.239.45.37:8080
124.122.254.218:8080
199.195.248.174:3128
85.147.153.34:80
185.200.36.91:8080
154.221.19.215:8000
197.211.38.187:50272
50.235.28.146:3128
185.218.191.4:8080
109.122.80.234:44556
159.203.8.223:3128
52.206.190.23:80
41.0.82.166:53834
109.175.10.239:8080
103.94.121.27:60109
94.130.20.85:31288
202.40.185.107:8080
35.227.170.117:80
1.0.186.130:8080
213.160.178.128:80
177.91.111.233:8080
54.191.0.160:80
158.255.249.58:38914
124.121.105.198:8080
159.65.164.58:80
117.102.92.219:8080
41.139.223.242:47842
45.13.81.23:8080
36.89.193.169:49612
13.88.30.112:3128
185.192.137.82:39901
41.204.87.90:8080
182.52.74.76:34084
167.172.248.53:3128
180.241.146.218:8080
77.221.42.50:8080
182.52.90.43:33326
88.190.203.36:80
61.238.82.201:8080
35.196.237.102:80
200.60.124.106:8080
202.93.228.150:39081
190.242.41.133:8080
91.187.116.232:44981
213.150.206.29:8080
58.8.186.97:8080
185.236.39.55:8080
222.121.116.26:40618
193.56.15.139:80
190.152.5.126:53040
122.154.66.193:8080
118.174.220.133:50616
5.135.74.186:3128
177.8.216.106:8080
5.189.162.175:3128
91.137.140.89:8082
186.192.17.242:8080
179.127.35.17:8080
181.113.135.254:52058
36.90.56.22:8080
182.253.74.9:8080
24.55.137.179:57545
212.191.78.146:8080
41.65.168.49:8080
41.170.12.92:37444
75.146.218.153:55768
202.147.192.134:8080
134.249.117.3:8080
206.189.151.26:3128
180.250.216.242:3128
198.143.183.227:3128
124.122.50.21:8080
103.87.48.57:8080
50.255.33.13:80
109.122.81.1:44556
177.85.78.4:8080
13.124.244.35:80
186.42.173.122:42589
188.129.161.55:36631
98.0.162.70:35576
36.66.170.19:8080
195.98.79.117:8080
46.8.28.17:8080
67.53.119.214:8080
74.208.253.183:80
178.217.140.70:443
142.93.72.206:3128
180.250.198.138:8080
144.91.77.1:80
149.202.23.203:80
95.217.95.130:58080
191.102.94.94:8080
122.176.32.52:8080
185.201.5.31:8080
51.254.101.63:80
128.199.210.218:3128
182.48.79.85:8080
147.135.1.50:3128
41.75.123.29:57872
176.53.2.122:8080
51.254.47.123:80
103.127.36.166:8080
27.123.222.211:8080
51.38.34.40:3128
101.109.255.18:46545
107.190.148.202:50854
192.81.223.236:3128
190.186.76.19:80
201.49.89.221:8080
116.0.54.30:8080
60.248.199.206:80
36.89.182.153:43832
159.89.92.38:8118
51.15.76.119:3128
47.92.145.147:8080
181.192.6.47:8080
158.255.215.155:8080
200.37.209.195:3128
167.71.191.49:3128
50.206.25.106:80
18.218.5.0:80
36.37.81.135:8080
75.151.213.85:8080
187.17.146.25:8080
93.116.185.57:53965
198.50.145.28:80
85.217.137.77:3128
73.165.155.245:80
202.83.121.90:80
95.80.254.85:8080
203.19.88.51:80
89.31.46.208:8080
34.197.159.149:8888
159.224.44.19:37190
210.211.18.62:8080
102.68.77.18:8080
103.21.150.184:3128
77.48.22.59:38974
70.165.65.233:48678
148.251.85.152:8080
80.212.55.211:80
181.40.93.226:80
143.255.7.40:8080
91.134.180.0:3128
95.142.219.181:56379
38.91.101.30:3128
109.200.156.102:8080
87.107.18.86:8080
74.85.156.94:8080
103.85.35.113:8080
213.6.65.30:8080
81.33.4.214:61711
188.72.6.98:49507
197.232.36.43:8080
179.27.83.222:54260
209.250.247.11:80
41.66.76.91:8080
187.188.33.38:999
163.172.224.247:80
59.152.98.130:8080
118.91.175.210:8080
185.204.208.78:8080
160.242.17.178:45218
200.87.75.190:8181
41.85.191.6:57797
138.68.173.29:8080
1.0.0.178:80
1.0.0.7:80
173.249.35.163:10010
173.249.35.163:1448
103.108.98.1:55207
201.16.151.65:44610
91.203.114.74:58074
183.91.33.41:8082
1.0.0.16:80
1.0.0.100:80
181.143.10.130:36535
139.59.53.105:3128
138.68.161.14:3128
118.174.46.162:8080
1.179.164.105:8080
192.241.245.207:3128
5.58.58.209:8080
1.0.0.0:80
96.9.86.70:41916
203.174.13.158:8082
207.154.231.211:8080
1.0.0.244:80
121.58.246.247:8080
41.73.15.130:8080
1.0.0.104:80
93.185.96.60:41003
159.224.182.206:35525
212.92.204.54:8080
122.96.51.9:8080
96.9.67.174:4145
173.249.35.163:10020
200.153.145.165:8080
116.114.19.204:443
159.192.141.141:4145
103.254.188.190:80
125.25.165.88:4153
119.41.236.180:8010
120.203.18.54:8888
117.127.16.207:8080
117.127.16.205:8080
117.127.16.205:80
119.179.144.179:8060
139.59.99.63:1080
139.59.101.223:1080
139.59.99.119:1080
27.147.146.138:57422
37.32.10.40:1085
47.74.251.84:80
91.98.21.142:4145
37.32.11.168:1085
95.0.66.46:1080
1.0.0.23:80
31.185.99.164:4145
78.60.203.75:58310
118.97.235.234:8080
51.158.123.35:8811
103.36.126.14:43999
157.245.153.47:8080
80.254.48.93:3128
212.42.113.240:37545
46.39.245.204:54108
178.212.54.137:8080
1.0.0.155:80
103.213.237.2:83
223.199.22.187:9999
199.167.184.141:80
123.108.201.18:83
46.52.255.69:8080
77.87.1.43:8080
177.159.238.114:3128
102.177.193.220:3128
182.71.7.234:3128
51.68.207.81:80
179.108.183.99:8080
192.254.75.187:8080
35.196.237.102:80
104.155.103.87:80
142.93.57.37:80
217.61.19.109:8080
144.76.70.133:1093
88.198.50.103:8080
1.0.0.50:80
188.170.233.102:3128
188.170.233.104:3128
79.137.112.61:59598
217.113.122.142:3128
163.172.182.164:3128
163.172.168.124:3128
91.211.247.59:8080
95.66.151.10:8080
91.211.247.59:80
168.149.142.170:8080
168.149.146.172:8080
168.149.146.164:8080
200.6.175.10:59341
168.149.156.172:8080
148.240.94.2:4145
174.75.238.93:16406
1.0.0.51:80
103.21.160.10:35101
184.178.172.5:15303
184.178.172.25:15291
66.135.227.178:4145
184.178.172.18:15280
70.166.38.93:24827
174.76.48.233:4145
174.76.48.225:4145
174.76.48.249:4145
50.245.153.217:32100
207.96.90.42:38694
50.242.100.89:32100
1.0.0.249:80
50.192.49.195:32100
178.128.108.120:8080
166.62.43.205:2606
89.218.170.54:35704
175.184.232.62:6667
36.92.79.234:8080
36.81.1.38:8080
78.37.27.139:34051
1.0.0.223:80
1.0.0.44:80
45.71.80.1:57871
103.106.32.129:44675
103.138.144.137:1080
165.255.254.204:8080
181.10.210.99:44252
103.210.28.66:31433
103.206.128.137:47740
103.113.3.210:4145
38.73.141.232:31596
103.110.110.106:1080
103.10.59.73:4145
103.12.151.6:37983
103.18.132.169:4145
103.131.104.52:4145
103.108.187.2:4145
103.113.3.180:4145
103.14.251.144:34432
101.255.66.252:11337
103.12.28.83:4145
103.16.132.195:4145
1.179.201.153:30457
101.51.141.20:4153
101.109.116.172:4145
103.113.3.242:4145
1.215.162.195:4145
1.20.102.73:61919
1.215.122.108:4145
189.203.73.102:9991
150.107.207.137:61954
94.16.120.18:5555
201.46.28.222:63238
202.5.56.71:8080
5.79.83.131:42332
5.63.165.178:40561
139.59.53.106:8080
179.107.98.18:8080
47.89.249.147:25063
91.143.218.146:3128
185.48.149.60:8080
213.80.235.59:30438
103.199.157.209:40052
103.224.37.129:8080
125.27.251.24:36048
202.61.49.52:48298
190.120.250.1:4145
181.112.159.58:35385
190.152.0.130:55870
165.22.50.208:8080
68.183.235.104:8080
106.52.70.133:1080
31.3.236.180:8080
198.27.75.152:1080
1.0.0.237:80
1.0.0.206:80
210.211.18.62:8080
166.62.91.189:46251
103.248.198.37:8080
1.10.188.42:48721
1.20.102.54:8080
202.139.192.63:8080
180.210.201.57:3130
195.248.242.77:80
1.179.144.181:80
138.197.157.32:8080
93.185.96.62:41003
45.177.223.5:8080
176.9.44.138:1090
166.62.38.222:16437
166.62.120.114:48245
192.169.214.83:37003
119.27.182.57:9999
192.169.231.160:26059
97.74.6.64:22347
192.169.201.24:47058
185.142.208.111:55443
132.148.26.187:26085
200.115.53.225:3128
138.197.157.60:1080
1.0.0.108:80
177.86.158.102:38500
146.88.51.235:80
192.169.192.171:7941
1.0.0.59:80
192.169.140.100:13156
192.169.197.182:53289
166.62.118.88:17993
166.62.43.205:13218
89.38.150.236:19614
192.169.141.201:26976
79.143.180.10:15719
163.172.219.130:443
104.248.88.167:8080
95.85.36.236:8080
178.150.194.243:4153
1.0.0.76:80
1.0.0.26:80
89.234.211.142:4145
212.126.102.146:43854
103.109.98.218:8291
212.50.15.18:61095
45.125.220.197:32658
109.92.202.222:57595
212.12.20.34:45470
188.134.16.191:41446
188.234.216.99:4145
212.117.19.215:33555
77.244.16.241:8291
176.124.96.14:4145
103.251.219.178:59341
85.172.30.77:4145
78.37.27.139:49225
95.217.95.130:58080
195.9.17.5:39264
185.85.152.243:1080
102.176.160.107:8080
103.111.55.58:18120
102.68.130.162:8080
182.52.91.132:8080
103.105.125.6:83
103.10.81.172:80
103.105.212.106:53281
182.52.238.52:50619
102.141.197.17:8080
182.53.197.223:8080
182.52.51.36:52165
103.111.83.26:53861
183.88.220.245:8080
103.110.109.19:3129
101.37.118.54:8888
101.4.136.34:81
136.228.128.6:31389
103.255.235.38:39847
121.156.240.119:1080
182.35.85.72:9999
41.217.216.45:33602
182.54.207.74:38877
176.9.24.182:1090
101.50.1.2:80
101.231.104.82:80
1.20.101.149:44778
182.52.51.4:58440
91.144.147.248:37632
178.20.137.178:43980
103.216.82.206:6667
1.20.99.122:8080
1.20.100.133:46755
139.255.123.194:4550
200.69.81.10:61221
79.123.136.96:3128
103.209.38.121:51372
5.58.49.28:45425
83.219.142.116:4145
185.7.233.130:36833
181.119.27.94:4145
103.19.57.110:8291
200.89.178.197:3128
37.26.86.206:4145
5.102.58.41:11337
101.4.136.34:8080
101.4.136.34:80
217.61.172.12:60308
194.44.230.122:1080
109.237.92.138:4145
217.12.68.58:4145
116.90.118.1:4145
178.151.238.148:4145
83.144.117.139:36057
188.121.110.140:1080
79.106.35.197:1080
91.207.202.135:4145
103.14.197.185:8080
94.189.132.47:8080
46.39.41.21:8080
94.25.104.250:8080
217.79.3.94:8080
181.191.180.110:8080
185.184.77.94:1080
83.171.114.92:37266
181.39.32.122:8080
46.151.150.11:9999
1.10.188.202:8080
212.68.168.178:1080
182.23.2.102:49833
89.252.19.66:34175
182.253.31.152:8080
1.0.0.190:80
37.57.12.231:4145
94.76.92.10:4145
95.158.63.61:4145
84.16.142.5:4145
109.167.207.72:8080
193.105.62.11:58973
77.74.79.25:8080
181.129.98.146:8080
36.67.57.45:53367
83.219.1.80:36900
134.249.146.35:43002
181.210.134.59:8080
181.129.104.226:999
167.179.4.134:8080
1.10.188.93:34871
181.189.221.245:42407
94.124.193.243:48258
1.196.177.235:9999
36.66.206.74:8080
1.196.177.51:9999
5.141.86.107:55528
91.203.27.168:4145
195.80.140.212:8081
83.219.139.66:4145
83.219.158.123:4145
37.229.122.18:8080
46.35.244.18:8080
91.238.137.108:8975
93.81.252.222:4145
81.3.154.235:4145
212.1.242.2:4145
217.21.54.173:4145
31.10.110.132:4145
195.9.123.218:42229
37.46.252.186:4145
195.211.219.47:30847
109.74.136.78:4145
194.190.93.136:34480
176.36.2.197:4145
195.138.90.121:4145
194.44.94.103:4145
87.76.10.119:4550
178.124.156.42:4145
89.19.199.152:53281
5.149.144.102:4550
5.23.103.98:43788
178.57.89.142:37131
91.203.36.102:53313
93.157.163.66:35081
89.151.135.90:8080
89.250.221.106:53281
62.109.15.27:3128
95.163.141.84:4145
195.9.171.190:44440
1.0.0.28:80
36.37.81.135:8080
104.248.226.203:8080
181.211.97.134:59855
181.118.10.107:4145
1.20.101.221:50922
1.53.137.92:4145
1.0.0.127:80
182.72.250.129:59746
1.0.0.68:80
101.109.116.180:4145
181.112.224.6:47694
1.20.100.111:41480
1.186.63.133:57023
181.196.247.162:50057
1.179.186.69:1080
181.113.35.6:41116
47.94.244.27:7302
1.20.179.119:4145
101.255.79.249:44550
1.20.96.158:4153
101.51.59.251:3629
181.113.67.74:33385
1.179.183.61:41123
181.129.96.35:4145
181.143.10.130:47208
182.75.3.34:4145
181.113.135.254:50083
1.9.167.35:60489
101.51.141.118:4153
181.236.224.4:4145
181.48.111.246:11337
181.129.144.59:3629
1.212.157.115:4145
181.211.101.90:4153
181.113.67.54:43366
1.179.198.226:56428
181.129.51.147:47562
182.253.201.214:52701
181.31.159.53:4145
181.112.62.122:40372
118.97.180.130:30793
195.9.183.26:8080
167.71.83.150:3128
68.183.125.104:8080
174.70.241.27:24413
68.183.125.165:8080
174.75.238.68:16399
174.70.241.7:24385
174.70.241.18:24404
138.197.5.192:8888
66.110.216.105:39431
66.110.216.221:39603
103.42.218.94:8080
13.230.194.71:80
91.135.194.22:56828
101.109.143.71:36127
103.122.90.182:53281
1.2.169.12:47678
193.193.71.178:43857
103.212.128.228:36734
178.47.139.50:8080
103.216.82.209:54806
182.48.82.94:23500
180.211.172.151:56308
46.165.49.41:52967
46.8.28.17:8080
80.255.91.38:43360
80.106.247.145:53410
181.112.42.38:38264
109.70.189.70:39989
119.178.101.18:8888
182.160.124.26:47304
109.101.139.106:61139
103.221.254.44:56471
46.227.162.98:51558
110.74.195.215:44975
160.19.246.57:32073
103.216.82.44:8080
95.80.252.189:52371
182.52.51.19:32558
170.81.35.26:36681
109.200.234.85:53281
86.57.181.122:51078
172.80.253.50:3128
194.246.105.27:41258
162.243.108.161:8080
193.169.5.14:39602
103.9.188.229:36984
181.129.52.156:54351
27.2.7.59:52148
213.6.101.174:23500
103.117.213.74:59283
109.167.134.253:30710
202.169.37.126:31333
103.57.70.231:51774
81.200.63.108:60579
190.111.231.8:8080
197.231.186.148:34591
103.28.121.58:80
82.135.148.201:8081
89.23.194.174:8080
103.243.132.62:30341
176.104.52.46:47578
89.39.108.202:37681
103.239.254.114:30569
78.60.130.181:37968
1.0.0.135:80
152.32.134.172:8080
103.42.195.70:53281
182.253.121.22:23500
96.87.16.153:41344
103.75.34.121:59015
46.175.185.239:37293
5.77.7.100:30355
140.227.52.41:6000
85.196.147.146:55527
66.90.255.99:8080
110.164.76.99:8080
113.160.206.37:37194
51.38.71.101:8080
181.112.57.54:53281
193.68.135.123:59278
89.42.133.58:8080
69.63.73.171:53281
95.158.62.178:51332
185.122.104.171:53281
79.175.151.181:4261
27.68.135.14:30199
98.0.162.70:35576
27.111.38.109:39850
175.106.17.98:80
62.122.201.241:46176
5.58.85.32:59824
41.75.123.29:57872
139.5.71.80:23500
51.15.76.119:3128
80.87.184.49:41258
91.150.189.122:55869
36.66.237.145:8080
70.166.38.80:24822
62.173.145.211:8118
46.235.53.26:3128
98.143.145.30:62353
176.221.104.2:50133
79.11.41.215:52939
138.99.109.22:37188
174.75.238.82:16409
166.62.120.114:53677
79.120.177.106:8080
103.251.214.170:6667
165.22.111.167:8080
67.201.33.3:4145
64.90.48.204:64360
208.113.182.208:61156
166.62.43.205:49683
132.148.159.44:38527
103.111.182.61:1080
192.169.231.160:41155
1.0.0.161:80
67.201.33.5:4145
103.111.183.18:1080
67.205.149.230:3128
102.68.17.96:8080
103.242.14.8:48791
192.81.223.236:3128
110.172.160.42:44047
1.0.0.21:80
97.74.6.64:37936
103.216.82.37:6667
88.99.11.16:8080
24.121.219.54:54321
71.122.164.51:54321
97.90.49.141:54321
96.66.200.209:64312
67.204.21.1:64312
148.77.34.200:54321
208.180.33.94:54321
108.29.77.74:54321
1.0.0.42:80
103.250.70.9:51370
192.169.201.24:58471
80.89.133.210:3128
5.135.184.46:3128
68.183.191.213:8080
68.183.123.15:8080
91.225.190.77:53281
167.172.56.231:8080
51.158.98.121:8811
51.158.113.142:8811
51.158.108.135:8811
51.158.68.26:8811
51.158.111.229:8811
51.158.106.54:8811
51.158.99.51:8811
51.158.119.88:8811
51.158.68.133:8811
51.158.68.68:8811
163.172.152.52:8811
5.135.181.83:80
51.91.212.159:3128
47.75.11.94:8080
138.68.24.145:3128
45.55.27.161:3128
45.55.23.78:3128
45.55.27.15:3128
45.55.9.218:3128
67.205.146.29:3128
95.85.36.236:3128
67.205.132.241:3128
67.205.174.209:3128
46.4.96.137:3128
88.198.50.103:3128
82.196.11.105:3128
185.13.165.22:10801
103.74.70.65:44642
37.32.23.5:1085
5.202.142.231:4145
200.195.148.18:3128
185.81.96.173:1080
188.121.103.56:1085
84.47.226.67:4145
182.53.50.98:8081
101.99.7.167:8080
36.66.234.19:31038
182.160.124.26:34643
177.124.184.72:39468
177.206.86.205:3128
195.9.162.186:8080
168.232.197.36:4145
120.132.52.244:8888
198.98.54.241:8080
191.102.106.1:8181
213.110.122.220:36818
1.0.0.130:80
119.147.137.79:8008
51.15.42.188:80
95.105.89.221:61057
192.145.205.74:4145
179.127.35.17:8080
89.28.14.239:4145
177.36.128.162:8080
5.133.24.215:4145
51.254.167.223:3128
120.29.155.59:60004
208.255.161.107:3128
119.18.158.222:3128
68.183.123.186:8080
163.172.136.226:8811
104.244.75.26:8080
5.79.83.132:42332
198.98.58.178:8080
43.255.228.150:3128
125.94.44.129:1080
199.195.248.174:3128
198.98.55.168:8080
157.245.124.217:3128
138.68.240.218:3128
138.68.41.90:3128
138.197.222.35:3128
138.197.204.55:3128
198.199.119.119:3128
163.172.147.94:8811
167.172.35.224:8080
79.143.180.10:50943
198.199.120.102:3128
139.59.169.246:8080
176.9.75.42:8080
207.154.231.211:3128
200.29.109.112:14888
195.46.20.146:51372
190.93.176.70:8080
91.123.161.136:4145
195.230.115.241:8080
193.19.165.222:53281
109.199.133.161:23500
200.89.178.19:8080
177.104.192.122:41443
89.29.100.212:3128
80.250.14.236:41737
191.240.152.129:80
171.103.57.114:4145
202.79.18.6:61221
190.145.148.34:42685
162.243.108.141:8080
178.217.172.234:8291
85.132.71.82:3128
178.217.172.238:8291
54.38.195.161:43498
95.180.104.65:4145
89.22.248.218:4145
195.34.238.248:51327
120.132.52.28:8888
120.132.52.22:8888
84.47.226.68:4145
89.25.21.54:4153
41.254.44.241:8080
90.181.150.211:4145
109.74.53.10:4145
1.0.0.18:80
180.87.195.22:44997
189.90.244.82:4145
120.132.52.153:8888
103.31.227.183:4145
176.9.119.170:1080
177.139.169.206:63253
82.114.75.104:4145
125.26.165.17:30607
103.22.248.59:61661
144.76.99.207:1105
103.206.208.225:35488
41.217.219.161:10801
190.109.165.80:8291
180.150.191.224:8888
91.230.154.221:4145
213.6.162.6:8080
189.20.22.18:39370
27.54.189.173:32159
45.64.139.126:59329
120.132.52.91:8888
103.122.255.18:8080
213.6.66.162:4145
197.211.38.187:35317
212.101.246.54:4145
144.76.70.133:1094
123.200.25.130:4145
79.108.207.194:4145
1.0.0.52:80
201.217.51.9:4145
62.33.207.202:3128
1.10.189.84:35138
202.65.171.67:8080
103.14.199.225:83
85.172.98.94:4145
150.129.170.13:57429
170.244.21.253:4145
89.24.210.10:4145
83.103.206.60:54321
38.29.147.15:39593
103.84.134.9:1080
167.71.212.154:80
103.130.196.2:4145
177.10.141.22:4145
43.248.73.122:31308
45.70.204.100:4145
103.28.113.22:11337
175.107.14.114:10801
37.252.73.252:1080
122.154.103.68:8080
93.179.209.216:57520
119.15.95.158:8080
79.132.205.34:61731
147.91.111.133:37979
188.240.196.66:41599
200.33.152.207:45226
103.110.110.114:1080
120.132.53.27:8888
81.161.61.110:30432
203.189.143.201:65309
120.132.53.15:8888
106.75.140.58:8888
190.120.250.57:4145
1.9.111.145:4145
183.91.33.41:85
202.44.209.83:4145
177.220.141.134:4145
188.170.233.98:3128
188.170.233.103:3128
103.21.40.35:4145
43.248.24.226:4145
187.17.145.237:30279
106.75.140.167:8888
45.55.27.15:1080
84.201.254.47:3128
188.170.233.100:3128
188.170.233.105:3128
120.132.52.84:8888
150.107.137.238:14880
186.192.254.78:4145
203.202.243.198:30533
132.255.94.2:31337
176.124.96.194:4145
80.78.76.81:40814
219.92.24.207:4145
103.248.248.238:4145
113.252.222.73:8197
103.248.219.172:8291
1.2.245.155:4145
1.4.221.235:1080
190.152.71.46:4153
1.0.0.134:80
1.0.0.214:80
1.0.0.226:80
190.120.190.75:1080
138.197.222.35:1080
139.59.99.63:3128
125.167.54.25:4145
1.0.0.77:80
138.204.235.222:34516
200.89.178.211:80
187.44.134.150:51416
92.39.70.138:60722
120.132.52.240:8888
103.215.16.238:4145
92.42.8.20:4145
103.99.177.32:8080
179.14.134.1:8083
184.149.34.86:37191
87.121.76.86:4145
183.91.33.41:8091
70.165.64.33:48678
68.183.232.63:3128
120.132.52.222:8888
68.183.201.206:3128
45.164.40.106:4145
34.90.113.143:3128
187.63.82.55:47621
186.206.144.130:3128
200.89.178.210:80
202.79.34.178:59938
1.0.0.48:80
178.210.129.150:1234
103.87.251.179:8080
120.132.52.130:8888
24.245.100.212:48678
120.132.52.97:8888
103.36.124.158:4145
121.237.148.162:3000
176.9.102.199:1090
182.53.206.26:30980
212.93.98.101:8080
27.50.18.42:23500
193.85.228.178:47747
36.91.177.105:4145
106.75.140.36:8888
106.75.140.57:8888
120.132.52.90:8888
120.132.52.250:8888
106.75.140.133:8888
106.75.140.95:8888
106.75.140.148:8888
120.132.52.152:8888
120.132.52.19:8888
120.132.52.146:8888
120.77.70.79:25
177.22.225.237:3128
1.0.0.196:80
120.132.52.144:8888
120.132.52.25:8888
1.0.0.243:80
120.132.52.254:8888
120.132.52.151:8888
180.150.191.215:8888
180.150.191.148:8888
120.132.52.241:8888
106.75.140.71:8888
106.75.140.103:8888
120.132.53.35:8888
120.132.52.143:8888
120.132.52.155:8888
120.132.53.4:8888
120.132.52.89:8888
106.75.140.89:8888
180.150.191.247:8888
106.75.140.42:8888
180.150.191.201:8888
106.75.140.223:8888
120.132.53.14:8888
106.75.140.196:8888
106.75.140.112:8888
106.75.140.76:8888
106.75.140.39:8888
106.75.140.43:8888
120.132.52.139:8888
106.75.140.162:8888
103.87.48.45:40603
5.149.205.141:8080
47.52.152.44:80
139.59.101.223:3128
139.59.59.63:8080
39.100.66.200:8080
139.59.53.107:8080
139.59.53.105:8080
1.0.0.172:80
1.0.0.150:80
1.0.0.162:80
1.0.0.137:80
1.0.0.117:80
1.0.0.170:80
1.0.0.199:80
218.75.102.198:8000
1.0.0.36:80
1.0.0.61:80
1.0.0.67:80
1.0.0.69:80
1.0.0.91:80
1.0.0.95:80
1.0.0.97:80
1.0.0.159:80
1.0.0.212:80
1.0.0.218:80
1.0.0.228:80
5.196.89.163:3128
1.0.0.60:80
178.62.193.19:8080
138.68.161.60:3128
109.226.213.125:34111
1.0.0.43:80
1.0.0.157:80
1.0.0.8:80
1.0.0.241:80
1.0.0.177:80
1.0.0.85:80
1.0.0.71:80
1.0.0.86:80
190.109.167.98:31186
36.66.114.249:8080
95.158.6.243:46399
103.9.188.39:8080
67.75.2.39:3128
202.79.40.97:36953
209.97.189.98:8080
103.16.71.228:83
191.241.253.20:4145
154.119.79.254:53281
103.76.20.155:54845
114.33.189.29:34275
103.226.232.207:8080
46.171.110.250:4145
84.15.209.197:4145
154.117.176.102:23500
45.165.152.26:4145
195.78.93.28:3128
162.245.81.151:8811
202.21.98.150:60640
156.0.229.194:42692
1.0.0.230:80
1.0.135.155:8080
36.89.149.107:8080
197.245.230.122:48918
201.15.34.98:4145
45.179.24.238:4145
162.243.108.129:3128
82.117.244.85:31280
51.91.98.71:1080
197.159.23.174:40167
222.165.223.139:41541
120.132.53.34:8888
118.173.233.150:47362
177.11.85.77:4145
58.65.167.165:4145
41.164.247.186:53281
41.160.114.37:12354
41.0.82.166:53834
160.119.44.210:8080
41.180.65.27:43787
105.212.11.128:47873
154.117.181.34:38975
210.1.245.108:55829
74.221.79.81:3128
186.249.68.49:61982
80.55.101.146:43860
124.195.199.225:4145
41.180.64.254:80
154.126.211.169:41014
41.223.245.103:8080
41.193.12.50:42313
154.127.120.18:30280
165.73.233.1:8080
102.134.122.20:9999
197.89.175.99:8080
45.236.170.10:3282
213.33.248.60:8080
180.250.54.27:53281
139.255.25.83:3128
93.87.60.152:3128
180.250.216.242:3128
182.16.171.1:53281
80.90.137.210:8080
185.51.92.103:51327
177.73.250.160:33172
200.89.178.208:3128
27.147.217.194:51873
112.78.134.154:4145
1.0.0.14:80
1.0.0.65:80
193.85.228.182:47747
162.17.252.5:43764
106.75.140.202:8888
180.150.191.242:8888
120.132.52.109:8888
180.150.191.153:8888
78.57.227.227:53281
213.163.122.196:8080
119.82.239.37:8080
176.110.121.90:21776
151.253.158.18:8080
86.124.89.80:49038
121.241.90.242:52115
151.253.158.20:8080
120.132.52.88:8888
106.75.140.150:8888
120.132.52.122:8888
106.75.140.38:8888
180.150.191.239:8888
106.75.140.109:8888
120.132.52.85:8888
120.132.52.203:8888
200.89.178.209:8080
1.0.0.58:80
106.75.140.199:8888
1.0.0.57:80
1.0.0.173:80
120.132.52.177:8888
120.132.52.120:8888
106.75.140.201:8888
120.132.52.140:8888
106.75.140.205:8888
120.132.52.199:8888
120.132.52.213:8888
106.75.140.35:8888
106.75.140.120:8888
120.132.53.20:8888
106.75.140.175:8888
120.132.52.202:8888
78.154.180.12:1080
183.91.33.41:83
120.132.52.204:8888
106.75.140.87:8888
180.150.191.225:8888
180.150.191.152:8888
120.132.52.21:8888
120.132.52.103:8888
106.75.140.159:8888
106.75.140.158:8888
106.75.140.63:8888
106.75.140.80:8888
106.75.140.155:8888
106.75.140.113:8888
183.91.33.41:8092
106.75.140.124:8888
106.75.140.219:8888
120.132.52.86:8888
120.132.52.184:8888
120.132.53.3:8888
120.132.52.136:8888
120.132.52.226:8888
120.132.52.29:8888
180.150.191.210:8888
120.132.52.191:8888
139.59.99.119:8080
36.25.243.51:80
1.1.1.1:80
139.59.59.63:3128
1.0.0.245:80
1.0.0.184:80
1.0.0.253:80
1.0.0.124:80
1.0.0.112:80
1.0.0.56:80
1.0.0.72:80
1.0.0.80:80
1.0.0.133:80
1.0.0.217:80
1.0.0.250:80
1.0.0.90:80
1.0.0.33:80
1.0.0.242:80
1.0.0.197:80
1.0.0.30:80
1.0.0.224:80
1.0.0.105:80
1.0.0.110:80
1.0.0.192:80
1.0.0.216:80
207.154.231.212:3128
1.0.0.225:80
1.0.0.180:80
120.132.52.81:8888
180.92.238.197:4145
1.10.242.246:4145
143.205.174.169:80
80.89.137.54:4145
177.220.188.39:4145
179.27.83.222:54260
201.184.152.138:44742
79.132.204.213:4145
47.106.59.75:3128
31.147.227.19:48925
62.33.207.196:80
186.219.214.10:32708
182.140.244.163:8118
117.88.5.234:3000
120.132.52.178:8888
120.132.52.197:8888
91.92.80.25:60594
75.119.201.238:19935
120.132.52.16:8888
120.132.52.187:8888
120.132.52.2:8888
106.75.140.54:8888
120.132.52.246:8888
106.75.140.170:8888
106.75.140.184:8888
189.10.3.186:3128
106.75.140.190:8888
106.75.140.108:8888
120.132.52.100:8888
120.132.52.127:8888
106.75.140.37:8888
106.75.140.98:8888
106.75.140.117:8888
106.75.140.73:8888
180.150.191.244:8888
180.150.191.249:8888
120.132.52.34:8888
180.150.191.219:8888
106.75.140.46:8888
106.75.140.212:8888
120.132.52.113:8888
120.132.52.234:8888
120.132.52.149:8888
106.75.140.127:8888
144.76.70.146:1090
183.91.33.41:91
106.75.140.47:8888
106.75.140.146:8888
120.132.52.80:8888
106.75.135.245:8888
180.150.191.199:8888
180.150.191.212:8888
120.132.53.24:8888
120.132.52.94:8888
120.132.52.237:8888
120.132.52.118:8888
106.75.140.128:8888
180.150.191.248:8888
165.234.102.177:8080
170.150.52.65:4145
201.91.194.218:4145
177.107.181.79:44550
177.124.102.135:4145
60.191.11.229:3128
36.25.243.251:80
183.146.213.198:80
183.146.213.157:80
1.0.0.209:80
1.0.0.233:80
1.0.0.40:80
1.0.0.191:80
1.0.0.128:80
1.0.0.148:80
1.0.0.37:80
1.0.0.121:80
1.0.0.194:80
1.0.0.235:80
1.1.1.2:80
1.0.0.82:80
1.0.0.231:80
1.0.0.78:80
1.0.0.240:80
1.0.0.164:80
1.0.0.3:80
1.0.0.251:80
1.0.0.160:80
1.0.0.17:80
1.0.0.10:80
1.0.0.46:80
1.0.0.49:80
1.0.0.62:80
1.0.0.88:80
1.0.0.143:80
1.220.145.45:4145
189.14.194.113:4145
124.105.55.176:30906
177.21.100.1:3128
177.68.143.100:4145
81.17.94.50:47163
200.9.25.90:4145
1.0.0.220:80
95.143.135.51:4145
91.197.135.106:4145
45.186.163.20:4145
188.226.141.211:1080
181.176.164.178:4145
101.255.79.18:44550
143.137.204.7:80
138.204.235.88:4145
185.174.210.231:4145
1.0.0.111:80
45.118.115.122:38276
103.248.14.178:30058
36.92.68.141:8080
45.236.152.78:4145
191.242.230.135:8080
185.29.11.241:4145
177.66.255.221:8291
45.186.163.2:4145
109.238.81.53:8080
162.243.108.161:3128
186.226.166.35:4145
121.101.130.43:4145
186.30.57.251:36263
2.229.249.153:4145
103.27.22.34:56194
41.73.15.130:80
84.51.0.199:4145
139.59.62.255:8080
181.211.38.62:35069
36.89.158.58:41215
177.75.69.142:4145
203.76.149.106:8080
120.132.52.134:8888
180.150.191.216:8888
120.132.52.183:8888
106.75.140.118:8888
177.32.193.86:4145
177.54.195.48:4145
46.246.4.14:3128
106.75.140.126:8888
106.75.140.222:8888
120.132.52.18:8888
106.75.140.206:8888
180.150.191.213:8888
106.75.140.176:8888
106.75.140.203:8888
106.75.140.197:8888
120.132.52.220:8888
106.75.140.88:8888
106.75.140.32:8888
106.75.140.107:8888
106.75.140.68:8888
1.0.0.153:80
180.150.191.214:8888
120.132.52.193:8888
120.132.52.214:8888
120.132.52.10:8888
120.132.52.137:8888
183.91.33.41:8086
106.75.140.50:8888
106.75.140.152:8888
106.75.140.210:8888
180.150.191.227:8888
120.132.52.128:8888
120.132.52.119:8888
106.75.140.51:8888
106.75.140.157:8888
106.75.140.132:8888
106.75.140.182:8888
120.132.52.96:8888
106.75.140.72:8888
120.132.53.9:8888
120.132.52.24:8888
120.132.52.233:8888
180.150.191.206:8888
1.2.169.101:47477
2.137.25.193:4145
186.193.226.59:1080
91.200.114.243:44550
177.125.165.196:4145
179.97.244.87:59341
145.239.81.69:3128
181.129.140.226:36733
200.196.239.3:4145
222.66.94.130:80
39.137.69.6:80
177.130.141.17:4145
191.209.88.51:4145
177.46.147.89:36013
191.37.165.86:56616
201.87.16.96:4145
139.59.99.119:3128
1.0.0.55:80
1.0.0.210:80
1.0.0.66:80
1.0.0.204:80
1.0.0.2:80
1.0.0.6:80
1.0.0.24:80
1.0.0.54:80
1.0.0.74:80
1.0.0.81:80
1.0.0.107:80
1.0.0.198:80
1.0.0.215:80
138.68.161.14:8080
176.9.75.42:3128
1.0.0.109:80
1.0.0.4:80
1.0.0.98:80
1.0.0.129:80
1.0.0.146:80
1.0.0.171:80
89.216.23.40:59901
186.46.187.26:43076
109.61.2.166:54066
138.36.40.54:32842
168.232.198.149:4145
82.177.87.98:33823
169.255.126.231:33440
91.190.85.97:34286
41.73.15.134:8080
148.217.94.54:3128
120.132.53.32:8888
36.89.151.26:59760
36.92.83.178:8080
36.90.122.79:8181
62.122.201.170:40714
139.255.141.108:8080
45.112.207.2:8082
190.61.41.165:8080
27.147.219.42:8080
185.116.254.5:4145
183.91.33.41:8090
200.89.178.211:8080
200.89.178.211:3128
209.97.179.94:8080
117.220.198.251:8080
201.234.227.221:59311
178.128.50.214:8080
158.58.197.227:50128
212.72.47.218:54321
103.250.158.23:61219
1.0.0.141:80
103.123.169.193:4145
180.150.191.250:8888
1.20.97.122:44279
199.115.201.1:30669
165.22.242.100:8000
41.242.70.5:4145
193.142.219.75:31503
103.16.71.248:83
1.0.0.158:80
120.132.52.3:8888
185.141.11.202:34139
61.247.10.217:8080
177.36.159.34:4145
81.214.254.203:3530
106.75.140.134:8888
200.89.178.19:3128
106.75.140.91:8888
106.75.140.83:8888
106.75.140.79:8888
180.150.191.197:8888
106.75.140.141:8888
180.150.191.156:8888
163.180.117.236:8080
185.112.21.25:4145
183.91.33.41:8084
106.75.135.252:8888
106.75.140.192:8888
106.75.140.189:8888
106.75.140.131:8888
106.75.140.116:8888
106.75.140.90:8888
120.132.53.16:8888
120.132.52.77:8888
106.75.140.188:8888
120.132.53.2:8888
120.132.53.11:8888
106.75.140.55:8888
106.75.140.172:8888
120.132.52.14:8888
120.132.52.135:8888
106.75.140.186:8888
106.75.140.169:8888
106.75.135.249:8888
106.75.140.224:8888
106.75.135.250:8888
120.132.52.205:8888
106.75.140.213:8888
103.240.161.109:6666
106.75.140.193:8888
120.132.52.211:8888
106.75.140.179:8888
120.132.53.31:8888
120.132.52.116:8888
106.75.140.33:8888
106.75.140.178:8888
120.132.52.180:8888
120.132.52.189:8888
120.132.53.18:8888
120.132.52.174:8888
89.250.19.173:4145
68.183.232.63:80
139.59.101.223:8080
49.70.122.87:61234
1.34.136.15:38318
1.0.0.32:80
1.0.0.9:80
1.0.0.115:80
1.0.0.238:80
1.0.0.211:80
1.0.0.116:80
1.0.0.113:80
1.0.0.201:80
122.226.57.70:8888
207.154.231.212:8080
1.0.0.234:80
1.0.0.103:80
1.0.0.122:80
1.0.0.25:80
1.0.0.132:80
1.0.0.123:80
1.0.0.87:80
1.0.0.114:80
1.0.0.94:80
1.0.0.189:80
1.0.0.19:80
1.0.0.31:80
1.0.0.131:80
1.0.0.147:80
1.0.0.149:80
1.0.0.200:80
1.0.0.203:80
1.0.0.236:80
89.218.5.110:42061
190.109.170.105:43375
95.137.240.3:47103
103.87.26.125:4145
1.0.0.75:80
77.38.21.239:8080
103.127.61.234:4145
27.110.253.254:4145
202.21.115.94:44574
43.227.129.129:83
164.68.108.48:80
50.235.149.74:8080
110.5.102.238:8083
68.183.191.41:8080
82.166.152.154:4145
200.89.178.212:80
147.135.1.50:3128
41.59.254.96:80
151.80.4.253:3128
200.89.178.194:80
138.197.136.125:8080
179.189.27.28:8080
113.161.62.31:8080
158.255.215.155:8080
110.232.67.20:8080
37.32.10.80:1085
187.16.4.126:8080
180.210.201.54:3128
200.111.182.6:443
103.75.208.53:4145
120.132.52.121:8888
118.174.211.220:11
1.0.135.155:443
67.60.137.219:35979
43.245.216.7:8080
200.89.178.212:3128
193.71.255.234:3128
187.45.106.54:63253
117.1.16.131:8080
190.152.12.54:41031
103.76.137.2:31976
202.137.10.179:38892
103.8.115.27:48644
139.162.78.109:3128
199.116.170.172:8080
199.116.170.132:8080
199.116.170.164:8080
199.116.170.156:8080
199.116.170.165:8080
199.116.170.171:8080
199.116.170.174:8080
123.200.20.242:52723
89.216.18.234:4145
41.73.15.134:80
223.30.190.74:8080
89.41.106.8:4145
1.0.0.179:80
191.98.181.218:52025
118.175.93.132:32263
186.225.250.26:60468
103.103.124.230:55749
82.113.39.38:33915
1.10.187.237:8080
182.160.127.53:48744
93.123.45.48:4145
200.115.53.193:3128
193.34.55.64:46558
183.87.14.250:44915
43.225.67.181:8080
200.206.50.66:42515
188.252.64.154:60446
119.93.152.192:49889
91.240.97.133:40281
123.200.20.242:58847
118.97.100.83:35220
106.14.206.26:8118
193.68.200.227:32070
87.250.218.12:33759
103.102.141.61:4145
202.166.207.58:34260
202.138.242.41:59199
209.97.162.185:8118
138.0.207.18:58566
112.78.39.198:57463
124.41.211.196:36084
190.211.156.107:4145
176.36.89.203:53325
176.235.99.38:9090
45.64.179.108:53281
181.143.204.2:8080
189.1.10.26:10801
139.0.6.36:63141
103.94.7.254:53281
187.45.106.176:8080
92.241.234.141:33647
103.231.218.126:53281
46.20.59.243:47497
207.191.15.166:44797
175.100.103.157:8080
151.253.165.70:8080
103.79.183.157:53281
36.89.65.253:36486
91.139.1.158:37504
185.158.248.253:3128
183.91.33.41:87
177.94.206.67:60666
36.89.194.113:38622
190.147.137.66:59947
117.6.161.118:53281
13.236.197.28:80
202.52.234.236:35931
202.57.43.26:51294
193.68.200.85:32070
195.9.188.78:53281
159.224.220.63:44299
194.183.168.129:31385
164.132.148.184:8118
200.69.83.51:9991
187.63.82.55:51769
103.123.246.54:8080
52.187.121.7:3128
125.26.108.170:61637
188.27.137.163:30987
124.41.211.186:43523
195.144.219.155:54857
212.24.148.234:60494
91.207.147.243:38472
5.188.155.159:3128
62.205.169.74:53281
120.132.52.195:8888
139.5.73.11:8080
177.237.62.60:8080
201.184.151.58:45718
188.138.250.83:39897
102.64.33.149:4145
188.168.96.34:34298
46.188.109.21:45952
125.27.251.124:45861
190.52.193.97:63141
85.175.216.32:53281
106.104.151.142:58198
31.220.183.217:53281
36.66.98.6:53281
115.84.99.82:8080
118.140.150.74:3128
24.113.42.169:48678
165.22.48.4:8080
199.116.170.140:8080
174.127.155.118:30669
199.115.202.1:30669
89.37.122.216:3129
86.57.177.8:42738
86.57.219.185:23500
154.127.32.89:60020
206.214.143.125:64312
216.169.73.65:40344
184.105.133.1:48324
88.190.203.36:80
198.23.143.11:8080
109.70.202.137:41258
146.196.108.202:80
153.127.12.227:3128
114.6.88.238:60811
173.242.102.241:53603
83.142.148.78:33980
157.245.203.155:8080
87.244.181.136:8080
173.56.223.6:54321
186.42.186.202:48281
18.229.219.18:8888
133.167.108.124:3128
200.89.174.105:8080
41.73.15.246:8080
157.245.199.136:8080
41.65.89.61:8080
178.128.82.56:8080
200.89.178.197:8080
41.190.33.162:8080
208.97.133.64:80
222.124.142.66:8080
45.55.23.78:8080
162.243.107.120:3128
192.241.245.207:8080
114.199.123.194:8080
200.48.98.50:999
118.99.105.226:8080
49.231.140.121:80
183.91.33.41:90
68.183.201.206:8080
200.89.178.197:80
178.128.91.155:8080
76.80.210.138:39593
95.141.36.112:8686
62.33.207.197:3128
136.243.47.220:3128
47.180.63.37:54321
1.0.0.239:80
216.183.40.15:39802
212.220.115.246:8081
68.188.63.149:54395
85.62.27.5:8888
103.240.160.21:6667
118.172.201.49:30558
188.134.77.205:7777
178.62.193.19:1080
82.196.11.105:1080
200.60.124.106:8080
177.129.207.23:8080
14.21.69.222:3128
78.128.119.130:8080
91.134.180.0:3128
178.57.115.124:8080
93.117.72.27:53973
64.90.53.23:1146
195.154.173.28:80
118.69.50.154:443
186.192.17.242:8080
177.85.78.4:8080
74.208.253.183:80
104.245.228.65:8080
94.79.4.53:8080
46.166.184.185:8080
1.0.0.229:80
1.0.0.39:80
93.81.246.5:53281
80.32.122.118:46738
179.125.41.225:8080
213.6.227.38:46003
90.188.35.190:8080
46.73.33.253:8080
125.26.7.83:8080
114.7.202.209:8080
190.152.19.54:38791
125.19.27.2:8080
187.188.159.157:999
185.120.36.150:8080
103.3.46.213:80
113.161.207.105:60626
212.66.61.118:37141
213.100.168.84:38492
187.1.32.34:8080
222.124.193.113:8080
185.10.166.130:8080
190.236.156.55:8080
211.24.105.248:41867
114.5.128.18:50565
113.172.177.214:80
146.88.51.234:80
110.44.120.144:8080
183.91.33.41:8087
167.172.248.53:3128
109.75.249.57:3128
114.199.111.18:8080
124.81.67.226:57997
92.38.46.129:39414
110.39.174.58:8080
203.190.53.6:48458
176.235.178.179:1080
177.37.94.10:4145
92.51.29.1:8080
103.245.19.73:42204
36.90.122.68:8181
117.102.78.42:8080
217.17.98.93:45838
82.131.178.19:58261
201.184.135.155:4145
68.183.201.206:80
212.156.86.226:4145
201.219.32.107:999
45.224.173.254:8080
185.89.156.250:8181
163.53.199.2:8088
118.69.50.154:80
78.140.7.239:49404
223.16.229.241:8080
190.214.44.230:8080
202.29.242.125:8080
213.32.10.123:3128
91.206.110.190:8080
80.94.229.172:3128
212.243.175.126:80
120.132.52.251:8888
106.75.140.44:8888
120.132.52.131:8888
120.132.52.236:8888
120.132.52.142:8888
178.205.254.106:8080
190.120.190.91:999
125.209.115.186:8080
180.150.191.243:8888
1.0.0.168:80
1.0.0.41:80
120.132.53.6:8888
1.0.0.34:80
1.0.0.79:80
106.75.140.101:8888
120.132.52.93:8888
106.75.140.173:8888
120.132.52.141:8888
183.91.33.41:82
180.150.191.205:8888
106.75.140.100:8888
106.75.140.208:8888
106.75.140.78:8888
120.132.52.242:8888
106.75.140.220:8888
106.75.140.204:8888
106.75.140.140:8888
106.75.140.153:8888
120.132.52.209:8888
180.150.191.209:8888
106.75.140.151:8888
106.75.140.60:8888
106.75.140.211:8888
106.75.140.56:8888
120.132.52.104:8888
120.132.53.30:8888
106.75.140.59:8888
180.150.191.217:8888
106.75.140.70:8888
106.75.140.147:8888
106.75.140.194:8888
180.150.191.154:8888
106.75.140.49:8888
106.75.135.253:8888
106.75.140.77:8888
200.122.86.177:8080
118.122.124.5:1080
180.150.191.198:8888
120.132.53.8:8888
120.132.53.29:8888
81.17.131.59:8080
183.91.33.41:88
183.91.33.41:8085
183.91.33.41:92
119.23.21.39:80
138.197.145.103:8080
60.217.159.134:8060
1.0.0.29:80
1.0.0.175:80
1.0.0.84:80
1.0.0.136:80
1.0.0.167:80
1.0.0.219:80
1.0.0.165:80
1.0.0.185:80
113.252.222.73:8380
1.0.0.145:80
1.0.0.119:80
1.0.0.195:80
5.34.176.240:80
1.0.0.92:80
1.0.0.188:80
1.0.0.156:80
1.0.0.142:80
1.0.0.11:80
1.0.0.35:80
1.0.0.38:80
1.0.0.47:80
1.0.0.139:80
1.0.0.187:80
1.0.0.221:80
195.8.51.55:8080
114.29.239.153:8080
110.74.199.16:63141
114.69.232.130:45953
103.29.156.142:1080
175.125.216.117:8080
43.225.21.111:37118
117.102.127.130:8080
14.232.245.83:8080
62.69.214.17:8090
43.248.25.6:4145
177.38.243.102:8080
118.97.36.21:8080
177.0.153.66:80
178.217.172.234:8080
66.96.237.111:80
119.110.209.94:3128
105.112.84.137:8080
103.3.46.213:8080
124.158.179.13:8080
177.75.193.217:53281
103.250.166.16:48340
200.240.244.7:8080
187.19.165.167:8080
195.91.177.28:8080
194.60.239.107:53281
179.1.13.46:999
27.147.209.215:8080
121.33.220.158:808
163.172.162.215:8811
178.128.54.11:8080
1.0.0.1:80
36.67.29.209:8080
95.47.234.1:8080
91.217.42.3:8080
46.227.162.98:33802
58.244.52.175:8080
89.29.100.225:3128
103.119.229.130:80
36.67.168.117:80
68.15.151.20:48678
36.89.190.85:8080
46.225.251.206:1080
37.235.65.76:8080
109.70.189.56:48774
94.240.46.189:53281
60.216.75.18:1080
77.242.25.143:8080
159.192.141.89:8080
202.80.231.67:8080
200.89.174.245:3128
68.183.232.63:8080
212.220.216.70:8080
27.147.216.140:8080
89.29.100.210:3128
213.109.128.21:8080
103.213.215.220:83
94.140.208.226:8080
1.0.0.15:80
36.90.166.168:8181
80.82.55.71:80
91.201.240.242:8080
36.67.168.117:8080
91.207.184.112:53281
51.38.34.40:3128
91.214.31.234:8080
103.106.58.42:51393
195.98.78.180:50018
101.109.116.104:8080
200.89.178.194:3128
183.91.33.41:89
5.1.53.46:8080
74.113.173.78:47208
157.230.250.116:8080
117.239.240.202:53281
139.228.48.104:8080
117.208.148.72:3128
208.255.161.107:8080
104.248.157.119:8080
199.195.248.24:8080
164.77.147.93:53281
27.147.179.232:8080
185.51.36.152:41258
186.148.190.77:999
200.188.151.212:8080
187.243.253.182:33796
187.188.182.87:999
177.224.90.29:8080
187.237.116.75:8080
103.244.228.26:8080
200.89.178.210:8080
43.246.140.4:43091
62.176.12.111:8080
115.87.196.15:8080
178.255.175.222:8080
106.0.62.26:45847
144.76.33.180:1092
95.160.17.142:38940
200.89.178.208:80
1.85.5.66:8060
176.9.102.199:1092
125.26.108.12:38150
91.98.94.31:4145
144.76.93.168:1094
5.9.71.154:1091
176.9.117.171:1092
79.143.180.10:29469
96.9.66.187:1081
88.248.55.136:4145
78.46.78.109:1091
112.78.144.58:4145
5.9.71.152:1091
27.147.131.219:50391
116.227.232.13:4145
54.38.110.35:48034
211.154.140.221:46667
85.160.68.50:4145
202.138.248.72:43037
218.81.50.112:4145
101.255.7.50:4145
1.4.142.161:4145
190.0.246.166:1080
180.128.1.36:4145
190.107.30.213:4145
37.32.2.179:1080
80.106.21.45:4145
192.186.113.138:58301
180.250.255.179:80
1.0.0.5:80
192.141.5.57:8080
138.121.155.127:61932
202.137.25.8:8080
5.189.133.231:80
173.212.202.65:80
62.210.124.248:3128
1.0.0.93:80
200.89.178.19:80
178.69.191.120:34953
103.18.79.209:8080
144.76.27.12:1091
62.33.207.196:3128
1.0.0.89:80
138.68.173.29:3128
113.53.234.78:80
139.59.64.9:3128
138.201.72.117:80
1.0.0.83:80
118.97.187.42:8080
110.170.254.50:80
116.114.19.211:443
189.43.68.169:80
39.137.69.10:8080
39.137.69.6:8080
88.87.79.20:8080
27.50.18.120:17848
118.70.144.77:3128
41.73.15.246:80
130.193.112.146:36923
39.137.107.98:80
157.245.61.250:8080
144.76.4.84:9150
203.202.245.62:80
113.252.95.19:8197
144.76.38.109:1092
91.67.240.32:3128
144.76.33.180:1090
46.4.21.80:1093
5.9.72.116:1094
213.136.87.114:9050
192.169.231.160:35591
176.9.119.170:8080
183.91.33.41:86
111.160.121.238:8090
103.241.227.118:6667
187.188.168.57:9991
187.191.20.2:54375
187.191.20.13:54375
187.190.220.125:8080
83.1.197.221:8080
118.96.174.245:3128
189.198.224.1:80
189.204.241.44:56792
187.188.182.107:43687
103.47.92.17:1080
187.190.237.17:32509
194.8.136.62:30082
45.7.238.46:48792
188.72.9.82:51327
41.204.87.90:8080
213.142.218.226:40816
200.89.178.208:8080
27.147.151.178:35288
113.161.207.105:54163
213.6.141.74:8291
103.61.198.114:4145
217.15.195.141:33955
109.238.230.42:4145
213.6.97.230:3629
177.38.245.107:55713
207.164.119.31:4145
188.59.186.124:44550
190.152.5.126:53040
1.0.0.181:80
138.68.161.60:8080
194.8.136.28:33163
139.99.104.233:15895
210.1.82.194:8080
45.124.125.93:8080
74.56.229.191:4145
103.20.189.126:3128
217.77.171.114:4145
82.204.141.94:4145
213.172.91.53:54001
95.0.66.109:1080
1.0.0.213:80
1.0.0.64:80
185.61.92.228:33060
1.0.0.63:80
191.242.187.164:8080
139.59.64.9:8080
138.197.204.55:8080
139.59.64.9:1080
188.226.141.127:1080
45.115.60.7:44096
91.209.8.227:80
138.99.109.38:37188
138.197.204.55:1080
138.68.240.218:1080
138.197.157.60:8080
207.154.231.216:1080
188.226.141.61:3128
162.243.108.141:3128
67.205.146.29:8080
139.59.53.106:3128
138.197.157.60:3128
188.226.141.61:8080
188.226.141.211:8080
177.10.201.221:8080
91.192.2.168:53281
5.23.102.194:52803
177.91.254.130:8080
185.252.144.96:8080
79.143.180.10:3834
41.60.218.10:8080
45.55.23.78:1080
139.59.53.106:1080
138.68.240.218:8080
188.226.141.61:1080
188.226.141.127:8080
176.9.119.170:3128
151.248.63.153:8080
131.0.234.99:8080
202.147.192.134:8080
139.255.112.98:8080
41.65.146.38:8080
144.76.27.12:1092
95.31.119.210:31135
124.237.83.14:53281
178.214.228.144:80
46.4.96.137:1080
154.236.177.107:8080
144.76.39.239:1093
88.198.24.108:1080
88.198.50.103:1080
207.154.231.211:1080
176.9.75.42:1080
207.154.231.212:1080
207.154.231.217:1080
207.154.231.213:1080
207.154.231.216:3128
188.226.141.211:3128
207.154.231.216:8080
188.226.141.127:3128
93.152.176.222:54136
190.208.45.221:3129
91.106.86.212:8080
43.224.8.124:6667
92.86.10.42:42658
189.112.125.209:9999
59.127.230.97:8888
194.79.60.240:38456
47.94.19.105:3001
1.0.0.247:80
1.0.0.193:80
1.0.0.202:80
87.197.156.62:23500
148.103.9.41:37584
103.224.48.73:8080
138.197.157.45:3128
51.68.141.240:3128
1.0.0.232:80
176.117.255.182:53100
201.184.250.170:3128
110.36.239.234:8080
177.67.8.223:48314
40.131.87.38:8080
87.140.92.161:36232
36.66.61.7:56232
187.19.204.23:20183
1.0.0.53:80
200.89.174.105:80
105.179.10.211:8080
36.89.191.217:56816
1.0.0.126:80
185.237.98.177:80
1.0.0.248:80
45.71.113.187:3128
1.0.0.45:80
1.0.0.13:80
111.118.128.123:8080
144.48.111.181:56269
95.216.120.27:8080
117.197.127.98:8080
45.231.100.17:9999
200.115.48.82:3128
139.99.104.233:36012
125.25.165.97:35099
167.71.213.179:8080
103.109.97.22:8291
177.130.156.175:4145
43.243.204.134:4145
222.165.234.147:52667
50.246.4.13:43708
122.201.112.114:80
198.199.119.119:1080
101.51.59.197:3629
74.95.1.114:33108
101.51.59.196:3629
177.154.49.71:4145
191.37.165.85:56616
45.55.9.218:1080
45.127.134.252:1088
46.34.161.176:33860
182.53.96.215:32441
178.213.130.159:60253
45.235.87.155:8080
103.94.122.254:8080
169.239.237.8:8080
188.227.195.70:8080
193.110.115.220:3128
162.251.158.82:23500
47.52.22.119:1080
91.207.61.241:1182
190.196.15.43:3128
103.212.128.253:38458
103.103.212.222:53281
188.170.41.6:60332
103.76.190.210:49939
178.218.104.8:49707
95.141.193.14:80
180.211.193.74:40536
198.211.96.170:3128
222.127.15.61:3128
52.80.58.248:3128
36.67.212.187:3128
39.108.123.4:3128
221.5.80.66:3128
46.45.19.138:53281
1.0.0.144:80
218.9.66.167:80
27.116.21.220:8080
110.172.160.66:36175
92.247.142.14:53281
37.221.204.206:47424
36.89.150.245:8080
218.60.8.99:3129
190.96.214.59:8080
210.22.5.117:3128
218.75.158.153:3128
50.235.28.146:3128
38.91.100.230:3128
46.0.203.186:8080
180.210.201.55:3129
37.57.15.43:33761
14.141.73.10:8080
125.26.6.98:32385
119.23.79.199:3128
162.243.108.129:8080
177.84.63.74:3128
200.178.251.146:8080
170.247.1.130:8080
191.103.219.225:48612
124.75.27.70:8080
91.207.238.107:57164
124.75.27.100:8080
129.205.98.54:8080
194.213.217.254:8080
124.158.105.58:3128
116.196.85.150:3128
103.14.235.26:8080
191.37.220.93:80
186.15.49.12:8080
173.249.35.163:655
118.25.183.14:8082
103.70.145.211:8080
89.204.214.142:8080
124.75.27.102:8080
124.75.27.103:8080
124.75.27.130:8080
190.157.247.65:53281
58.97.72.83:8080
1.0.0.176:80
1.0.0.106:80
1.0.0.222:80
103.105.209.26:8080
89.30.96.166:3128
185.86.134.35:8080
60.246.89.102:53281
64.90.52.171:64360
178.217.172.235:8080
142.93.130.169:8118
103.80.81.229:3128
167.172.247.68:8080
112.109.198.106:3128
1.0.0.52:80
93.183.184.253:8080
178.128.50.210:80
104.250.34.179:80
36.67.66.202:55638
185.136.150.201:54597
78.62.219.250:42333
185.61.92.207:32078
88.220.43.198:4145
31.134.124.211:4145
194.44.160.246:31366
46.149.86.51:53704
185.25.48.215:37229
185.175.95.46:39242
90.183.158.50:44964
91.213.119.246:46024
80.91.125.99:4145
78.139.50.233:4145
84.22.43.100:4145
212.200.101.22:61181
146.120.70.176:59418
5.2.211.232:46890
89.120.140.249:4145
79.106.36.2:1080
137.74.253.57:1080
62.197.222.201:1080
176.112.225.82:4153
87.110.36.9:4145
173.46.67.172:58517
138.197.157.45:8080
207.154.231.217:3128
212.87.248.11:40762
173.236.178.28:10890
194.167.44.91:80
138.204.127.1:4145
177.91.186.89:4145
177.46.141.143:46330
170.244.229.138:11337
200.71.72.201:4145
45.185.114.169:4145
177.35.120.30:4145
191.5.177.63:11337
170.83.153.13:4145
179.97.243.125:4145
1.0.0.166:80
92.249.122.108:61778
220.133.209.32:4145
81.28.164.55:52658
131.100.239.62:54344
92.50.32.99:4145
1.0.0.118:80
103.95.40.211:3128
67.204.21.17:64312
177.125.253.200:3128
187.102.96.95:44550
139.59.53.107:3128
84.22.59.202:8080
139.5.71.70:23500
13.126.42.184:80
106.243.144.238:4145
185.33.115.4:44953
138.197.157.32:3128
1.0.0.120:80
103.76.148.239:4145
217.113.114.80:4145
188.19.64.122:4145
77.35.147.240:4145
213.6.141.146:8291
212.200.142.250:4145
46.209.47.2:1081
216.198.188.26:61002
212.126.102.147:43854
93.190.225.134:58155
36.66.215.119:8080
184.95.0.82:4145
189.2.65.162:48629
185.82.136.41:36869
94.139.163.77:4145
148.255.64.92:4145
5.1.104.99:53841
82.99.230.170:42537
78.165.64.138:4145
206.192.226.90:39593
138.197.145.103:3128
117.127.16.207:80
103.27.22.34:34220
190.221.152.130:56142
138.68.41.90:8080
187.1.188.158:42649
208.113.223.182:14743
119.15.89.106:8080
91.209.108.168:55831
191.240.152.133:80
103.240.161.108:6667
190.29.26.190:44550
41.162.107.130:1080
119.15.87.134:8080
1.10.189.68:60400
187.102.71.12:4145
174.76.35.7:1080
121.40.66.129:1080
185.171.54.26:4153
139.5.132.245:8080
67.60.137.219:54931
198.144.109.129:38316
103.106.238.230:32865
1.0.0.70:80
31.193.124.70:53281
41.65.201.165:8080
1.0.0.152:80
176.113.126.127:39921
45.169.232.2:4145
190.26.19.250:9999
213.32.25.77:1080
45.250.168.35:4145
181.112.57.62:45565
62.141.66.110:4145
176.193.18.172:4145
186.251.10.90:3629
1.0.0.227:80
117.242.188.86:8080
45.168.168.9:63253
82.127.124.78:3389
188.170.233.101:3128
1.0.0.125:80
167.172.248.53:80
197.234.179.102:3128
79.110.164.22:8080
117.57.22.25:9999
138.197.157.44:1080
138.68.161.14:1080
138.68.161.60:1080
103.25.120.138:44550
46.29.79.57:4145
46.254.240.106:43310
36.74.102.191:4145
89.39.73.131:4145
203.189.89.145:4145
46.171.28.162:59311
81.17.81.34:4145
81.183.209.197:4145
1.0.0.140:80
45.226.48.38:34686
36.78.210.176:4145
185.252.94.20:8080
187.102.71.1:4145
92.255.248.230:61255
45.4.237.72:48546
46.229.187.169:53281
82.196.11.105:8080
138.68.24.145:1080
139.59.109.156:8080
207.154.231.213:8080
207.154.231.213:3128
200.146.229.129:8291
186.192.253.70:4145
85.116.125.149:4145
94.101.141.244:80
139.59.62.255:1080
162.243.108.129:1080
139.59.62.255:3128
162.243.107.120:1080
178.219.175.128:44010
139.162.78.109:1080
138.68.24.145:8080
139.59.169.246:1080
45.163.84.5:59341
64.237.72.222:32688
24.181.205.134:54321
109.194.163.7:4145
1.0.0.20:80
31.192.42.150:60174
194.135.75.74:55716
36.89.129.15:35270
67.205.146.29:1080
67.205.132.241:8080
139.59.169.246:3128
61.41.9.213:1081
139.162.78.109:8080
41.190.232.99:31256
67.205.174.209:1080
138.68.173.29:1080
139.59.109.156:1080
139.59.109.156:3128
138.197.157.45:1080
67.205.132.241:1080
67.205.174.209:8080
162.243.107.120:8080
46.4.96.137:8080
182.52.51.59:38238
88.199.21.75:80
82.117.215.14:80
197.211.238.220:54675
86.120.157.254:8080
1.0.0.73:80
91.206.210.54:46698
191.103.254.145:52973
177.84.219.9:20183
157.230.47.159:8080
68.183.186.232:8080
1.0.0.207:80
190.34.204.10:4145
181.114.38.108:4145
190.244.145.209:4145
45.127.134.252:1088
117.102.81.2:53281
79.132.202.1:4145
1.0.0.99:80
178.150.139.189:53708
174.76.48.228:4145
89.40.59.174:8080
174.70.241.8:24398
166.62.43.205:43854
185.25.207.155:8080
166.62.91.189:62506
50.196.148.195:32100
103.250.153.203:8080
67.213.212.12:33485
89.37.2.110:4145
103.215.157.173:58338
202.162.222.166:4145
103.239.255.170:58733
103.241.227.98:6667
45.7.238.250:33389
1.0.0.27:80
210.61.216.66:33990
103.124.111.6:34413
114.104.137.184:1080
182.163.111.150:40851
103.233.118.89:49232
202.138.253.183:11337
182.253.121.51:4145
103.16.63.233:36517
59.62.127.150:4145
190.120.190.69:1080
110.78.138.52:4145
201.174.19.158:38394
1.0.0.176:80
1.0.0.104:80
1.0.0.6:80
41.72.203.182:37207
202.141.241.36:4145
1.0.0.25:80
1.0.0.1:80
82.77.55.46:8080
78.31.73.222:8080
1.0.0.246:80
173.236.180.90:10890
50.30.93.94:39593
45.250.226.47:8080
176.118.49.54:53281
1.0.0.22:80
36.67.68.21:30263
1.0.0.182:80
41.65.168.49:8080
165.16.96.91:8080
132.148.241.241:8888
1.0.0.154:80
64.90.48.109:46386
109.167.226.107:33371
1.0.0.163:80
182.253.201.26:8080
104.41.181.51:80
79.130.203.13:4145
119.10.177.94:4145
27.72.122.228:51067
113.161.129.13:4145
182.52.238.37:3629
103.221.254.117:10801
118.172.47.97:51327
186.46.138.194:38983
217.21.124.194:4145
119.10.177.90:4145
110.169.80.161:4145
116.58.232.149:4145
118.97.53.99:32468
116.100.254.172:4145
203.150.113.172:14153
117.196.235.177:8291
117.252.70.233:59341
117.252.71.9:59341
124.120.234.150:4145
111.76.67.30:4145
119.10.180.47:4145
41.223.232.206:4145
36.90.60.12:4145
1.186.40.9:39651
79.106.224.212:8080
1.0.0.174:80
204.101.61.82:4145
203.189.137.137:8080
203.190.53.38:42941
1.0.0.96:80
154.66.240.106:38631
1.0.0.102:80
46.238.48.82:8080
103.75.148.203:4145
103.78.81.188:4145
182.253.22.27:4145
159.192.97.80:43278
109.205.115.234:1080
183.220.145.3:80
109.224.1.210:46033
125.25.165.22:4153
88.135.41.234:4145
103.210.142.54:4145
102.68.17.108:1080
78.38.123.36:4145
203.176.141.166:4145
202.44.209.192:4145
202.5.36.215:4145
152.32.78.24:4145
118.174.234.28:44436
182.48.88.114:8291
194.12.121.100:61600
177.185.32.1:8080
123.201.21.234:8080
1.0.0.151:80
5.16.13.38:8080
1.0.0.183:80
1.0.0.101:80
188.244.189.11:61859
64.90.50.168:64360
144.48.176.38:36555
155.0.202.254:51327
103.57.80.58:4145
103.106.32.1:35053
124.200.36.118:33792
109.86.121.118:46333
103.239.55.73:30504
124.158.150.205:4145
120.50.56.137:40553
121.12.152.242:51080
134.236.243.28:4145
103.68.1.194:4145
103.118.153.42:4145
203.215.48.14:4145
114.4.208.6:4145
114.35.237.73:4145
159.192.121.240:4145
103.78.81.190:4145
116.3.75.100:4145
114.242.143.21:58933
139.5.71.233:45411
116.232.65.218:4145
103.220.207.17:40061
138.197.157.44:3128
1.0.0.252:80
185.83.145.92:3128
85.187.17.39:53281
139.59.99.63:8080
103.57.195.109:4145
187.120.221.165:9999
77.122.57.126:1080
168.149.131.164:8080
197.50.222.213:50916
196.38.150.104:8082
183.91.33.41:81
103.49.52.129:83
1.0.0.205:80
123.108.200.102:83
1.0.0.186:80
1.0.0.169:80
50.197.38.230:60724
78.60.203.75:60401
109.194.175.108:4145
176.120.220.199:4145
170.247.152.132:43747
188.237.135.3:4145
83.238.39.251:58431
84.54.202.216:4145
176.223.11.5:34464
1.0.0.138:80
1.0.0.208:80
1.65.215.195:8080
176.120.202.239:10801
168.149.156.164:8080
134.0.63.134:1723
183.91.33.41:84
1.0.0.12:80
79.106.35.20:1080
80.240.250.222:4145
80.78.77.104:37435
31.129.175.214:54512
79.175.28.69:1080
81.211.68.14:1080
80.78.70.9:4145
217.164.255.35:54670
46.225.242.179:4145
79.129.98.181:1080
203.150.113.19:14153
138.186.61.178:45207
191.240.152.129:80
191.240.152.130:80
191.240.152.132:80
89.133.180.22:41283
191.240.152.134:80
176.236.37.130:1080
192.158.15.201:50877
74.59.132.126:53496
138.0.230.49:38125
155.93.108.170:41018
212.170.18.65:4145
95.85.36.236:1080
132.148.159.44:55547
139.59.90.148:20183
47.74.186.203:8081
217.115.213.186:4145
37.32.10.215:57277
45.126.22.162:41878
88.2.24.50:40246
220.134.249.65:4145
81.12.91.137:4145
36.91.181.155:4145
59.91.122.1:46726
202.169.32.138:1080
139.59.53.105:1080
45.64.96.35:11337
166.62.43.205:46027
181.143.79.154:48749
139.59.99.234:3128
109.248.62.207:43558
198.199.120.102:1080
185.81.96.173:8080
207.154.231.217:8080
138.68.165.154:8080
138.68.165.154:3128
109.224.1.210:50617
139.59.61.229:1080
139.59.61.229:8080
138.68.165.154:1080
139.59.99.234:1080
138.68.41.90:1080
139.59.99.234:8080
139.59.61.229:3128
198.199.120.102:8080
78.38.111.243:8080
193.233.9.167:39396
186.15.233.218:45999
75.119.205.120:31435
176.123.164.240:58488
111.230.138.177:1080
84.241.29.41:8080
105.112.8.53:3128
89.43.6.114:8080
37.152.163.35:8080
84.241.37.62:8080
87.121.51.66:4145
5.56.132.210:80
185.132.228.118:31938
185.188.191.1:4145
84.232.78.30:4145
195.29.239.34:44836
178.252.75.13:4145
185.253.74.206:1080
213.81.182.29:57534
77.46.146.244:44550
185.197.33.254:42644
46.254.217.67:61781
185.142.208.160:35367
46.22.49.41:43128
81.183.210.46:4145
89.133.95.177:4145
178.48.68.53:4145
190.25.189.178:8080
186.159.2.153:55994
119.146.131.247:8080
103.25.3.82:48806
185.33.34.76:51604
182.19.41.145:80
185.146.113.157:8080
202.142.147.87:8080
200.89.174.64:8080
41.32.245.18:8080
200.89.174.245:8080
103.44.145.182:8080
103.216.82.200:6667
103.106.28.230:8080
139.59.53.107:1080
120.138.117.102:59308
103.249.251.238:8080
150.129.171.123:6667
79.190.145.141:3128
163.53.209.7:6667
103.245.198.101:8080
139.59.59.63:1080
190.214.26.90:53281
200.199.114.226:33932
164.73.191.2:8080
204.15.243.233:58159
103.251.225.10:35101
45.55.9.218:8080
182.52.238.52:61142
187.243.253.182:43015
116.206.148.146:4145
182.52.51.154:34995
177.37.240.38:4145
45.112.57.110:53682
195.136.11.125:1080
95.143.244.66:3629
95.65.27.171:59341
178.48.68.73:4145
31.135.102.216:4145
178.217.172.235:8291
5.182.26.129:4145
5.182.26.126:4145
193.239.58.91:4145
120.77.12.182:1080
61.41.9.213:10081
163.172.169.147:9140
121.40.162.239:1080
13.229.103.107:52649
91.209.108.168:22509
121.156.240.31:1080
14.29.247.69:1081
144.76.70.146:1093
46.4.21.80:1094
150.242.182.98:80
41.191.205.2:9999
36.255.222.21:1080
39.108.13.125:1080
181.209.101.195:999
45.115.113.114:33071
103.217.105.170:8080
103.81.104.85:8080
52.28.110.179:1080
103.15.167.124:41787
91.230.199.174:60408
67.205.149.230:8080
179.108.169.71:8080
131.161.234.209:1080
119.28.133.52:7070
202.62.45.17:4153
103.9.188.151:41553
117.206.155.82:34883
117.240.138.2:45953
43.228.222.2:44576
117.206.83.198:44550
136.228.160.250:11337
182.72.162.16:8291
122.154.57.98:4145
103.228.119.129:4145
112.78.44.229:4145
103.58.66.204:10801
185.124.183.102:4145
91.225.4.79:33494
178.62.193.19:3128
213.182.138.224:4145
5.56.18.35:38827
187.60.36.164:53597
23.31.218.228:80
96.87.184.101:43705
159.138.20.247:80
144.217.163.138:3128
45.55.27.161:8080
138.197.222.35:8080
198.199.119.119:8080
197.159.12.167:59369
45.55.27.15:8080
194.26.180.142:80
137.59.51.5:51525
201.182.88.103:4145
222.124.170.66:1080
209.45.53.53:3128
36.55.226.137:3128
138.197.157.44:8080
118.175.93.112:46873
45.55.27.161:1080
162.243.108.141:1080
162.243.108.161:1080
67.205.149.230:1080
192.241.245.207:1080
103.37.81.92:42420
105.247.152.91:57394
90.181.150.210:4145
85.109.58.221:4145
154.72.188.190:4145
118.174.21.118:13629
212.200.160.230:4145
80.78.75.59:47807
77.237.15.60:46322
62.122.201.241:33704
80.237.79.29:4145
77.92.53.7:4145
124.248.191.143:8291
52.144.70.194:4145
80.95.109.6:4145
138.197.157.32:1080
92.244.150.94:4145
92.242.255.37:31024
182.48.75.205:8080
103.142.68.2:8080
43.245.143.30:8080
103.114.10.238:8080
103.122.249.9:8080
103.142.68.38:8080
89.20.135.204:80
47.75.149.193:1080
103.197.48.178:8080
103.28.121.58:3128
220.247.131.74:8080
103.139.9.178:8080
91.239.18.172:4145
43.224.116.218:51370
45.248.145.154:8080
103.52.135.100:8080
179.189.125.222:8080
193.59.27.71:36748
185.32.120.177:60724
103.87.207.188:58444
185.32.165.78:8080
103.109.98.218:44527
84.201.158.146:3128
103.47.93.193:1080
103.106.192.245:30905
79.101.106.74:52792
221.141.130.183:33741
59.91.122.57:44550
197.211.38.187:50272
186.229.25.18:8080
203.189.142.23:53281
168.149.131.172:8080
109.201.96.222:4145
185.64.238.229:34739
109.122.80.234:57553
2.139.225.136:4145
110.74.193.43:60802
109.185.149.226:4145
77.108.78.20:48079
110.39.166.38:14888
185.116.254.18:4145
109.245.241.89:4145
185.162.141.236:50579
185.189.208.145:51693
178.158.50.120:4145
195.66.207.18:51327
109.167.134.253:44788
176.223.1.70:4145
178.254.155.106:36994
176.98.95.132:1080
31.46.32.20:4145
192.162.62.197:51110
185.130.144.191:63303
77.93.42.134:46235
36.92.68.211:8080
117.102.86.174:4145
203.80.170.68:4145
46.209.105.26:34637
93.116.57.4:48642
190.144.70.74:57919
113.11.226.200:59767
46.63.0.17:4145
58.9.104.61:1080
137.101.138.173:4145
37.32.10.29:1085
110.77.154.71:4145
27.147.157.245:58148
140.0.31.16:4145
203.217.169.138:36509
191.97.13.44:4145
27.147.136.178:35419