<svg width="8" height="8" viewBox="0 0 8 8" fill="none" xmlns="http://www.w3.org/2000/svg">
<path d="M5.19579 4L7.75226 1.44353C8.08258 1.11323 8.08258 0.578029 7.75226 0.247727C7.42196 -0.0825756 6.88676 -0.0825756 6.55648 0.247727L4 2.80449L1.44353 0.248014C1.11323 -0.082288 0.578029 -0.082288 0.247727 0.248014C-0.0825756 0.578317 -0.0825756 1.11351 0.247727 1.44382L2.8042 4.00029L0.247727 6.55676C-0.0825756 6.88706 -0.0825756 7.42226 0.247727 7.75255C0.578029 8.08287 1.11323 8.08287 1.44353 7.75255L4 5.19609L6.55648 7.75255C6.88678 8.08287 7.42198 8.08287 7.75226 7.75255C8.08258 7.42225 8.08258 6.88705 7.75226 6.55676L5.19579 4Z" fill="#9F9F9F"/>
</svg>
