<svg width="24" height="24" viewBox="0 0 24 24" fill="none" xmlns="http://www.w3.org/2000/svg">
<path d="M12 24C18.6274 24 24 18.6274 24 12C24 5.37258 18.6274 0 12 0C5.37258 0 0 5.37258 0 12C0 18.6274 5.37258 24 12 24Z" fill="url(#paint0_linear)"/>
<path d="M19.1699 12.9656V17.9129H16.3016V13.2971C16.3016 12.1382 15.8874 11.3467 14.8489 11.3467C14.0564 11.3467 13.5855 11.8796 13.3776 12.3955C13.3021 12.5799 13.2826 12.8359 13.2826 13.0946V17.9127H10.4141C10.4141 17.9127 10.4526 10.0951 10.4141 9.28588H13.2829V10.5084C13.2771 10.518 13.2689 10.5274 13.2638 10.5366H13.2829V10.5084C13.664 9.92184 14.3439 9.0833 15.868 9.0833C17.7551 9.0833 19.1699 10.3163 19.1699 12.9656ZM7.41332 5.12744C6.43211 5.12744 5.79016 5.77153 5.79016 6.61776C5.79016 7.44603 6.4135 8.10872 7.37568 8.10872H7.39429C8.39475 8.10872 9.01681 7.44603 9.01681 6.61776C8.99777 5.77153 8.39475 5.12744 7.41332 5.12744ZM5.96065 17.9129H8.82814V9.28588H5.96065V17.9129Z" fill="#F1F2F2"/>
<defs>
<linearGradient id="paint0_linear" x1="19.8" y1="3.15" x2="3.75" y2="21.15" gradientUnits="userSpaceOnUse">
<stop stop-color="#C52E92"/>
<stop offset="1" stop-color="#FA9E4C"/>
</linearGradient>
</defs>
</svg>
