<svg width="196" height="32" viewBox="0 0 196 32" fill="none" xmlns="http://www.w3.org/2000/svg">
<path d="M7.648 2.272C6.21867 2.848 5.10933 3.73333 4.32 4.928C3.552 6.10133 3.168 7.54133 3.168 9.248C3.168 10.0373 3.24267 10.592 3.392 10.912C3.54133 11.2107 3.616 11.3813 3.616 11.424C2.464 11.424 1.6 11.1893 1.024 10.72C0.469333 10.2293 0.192 9.42933 0.192 8.32C0.192 6.95467 0.746667 5.632 1.856 4.352C2.98667 3.05067 4.42667 2.00533 6.176 1.216C7.92533 0.405332 9.67467 -1.90735e-06 11.424 -1.90735e-06C11.7227 -1.90735e-06 12.1493 0.0213318 12.704 0.0639992L7.616 24H3.008L7.648 2.272ZM23.552 24.192C22.2507 24.192 21.2907 23.8507 20.672 23.168C20.0747 22.464 19.776 21.6 19.776 20.576C19.776 20.128 19.8293 19.6267 19.936 19.072C20.0427 18.496 20.1493 17.9413 20.256 17.408C20.384 16.8747 20.4693 16.5333 20.512 16.384C20.6827 15.6373 20.8427 14.9013 20.992 14.176C21.1413 13.4507 21.216 12.864 21.216 12.416C21.216 11.328 20.832 10.784 20.064 10.784C19.5093 10.784 19.0187 11.0613 18.592 11.616C18.1653 12.1493 17.824 12.8533 17.568 13.728L15.392 24H10.784L14.176 8H18.784L18.432 9.664C19.4987 8.46933 20.7467 7.872 22.176 7.872C23.264 7.872 24.128 8.17067 24.768 8.768C25.408 9.36533 25.728 10.272 25.728 11.488C25.728 12.1067 25.6533 12.8 25.504 13.568C25.3547 14.3147 25.1413 15.232 24.864 16.32C24.6933 16.9813 24.5333 17.632 24.384 18.272C24.256 18.8907 24.192 19.3813 24.192 19.744C24.192 20.1707 24.288 20.5013 24.48 20.736C24.672 20.9707 25.0027 21.088 25.472 21.088C26.112 21.088 26.624 20.864 27.008 20.416C27.392 19.9467 27.776 19.232 28.16 18.272H29.504C28.7147 20.6187 27.7973 22.1973 26.752 23.008C25.728 23.7973 24.6613 24.192 23.552 24.192ZM31.8043 24.192C30.7803 24.192 29.9162 24 29.2122 23.616C28.5082 23.2107 27.9856 22.6987 27.6442 22.08C27.3029 21.44 27.1322 20.7787 27.1322 20.096C27.1322 19.392 27.3029 18.784 27.6442 18.272C27.9642 17.7387 28.3589 17.3547 28.8283 17.12C29.6603 15.6267 30.3856 14.1227 31.0043 12.608C31.6229 11.072 32.2096 9.41867 32.7643 7.648L37.5003 7.008C37.6069 9.73867 37.7883 12.6933 38.0443 15.872C38.1509 17.152 38.2043 18.08 38.2043 18.656C38.2043 19.1467 38.1616 19.552 38.0763 19.872C39.0789 19.296 39.8469 18.7627 40.3803 18.272H41.7243C40.3589 19.8507 38.7269 21.184 36.8283 22.272C36.2096 22.9333 35.4416 23.424 34.5243 23.744C33.6283 24.0427 32.7216 24.192 31.8043 24.192ZM30.7803 21.664C31.5696 21.664 32.2309 21.4293 32.7643 20.96C33.2976 20.4907 33.5643 19.7333 33.5643 18.688C33.5643 18.048 33.5003 17.152 33.3723 16C33.1589 13.568 33.0203 11.936 32.9563 11.104C32.4443 12.7893 31.5803 14.8053 30.3643 17.152C30.8549 17.408 31.1003 17.7813 31.1003 18.272C31.1003 18.6773 30.9616 19.04 30.6843 19.36C30.4283 19.68 30.0976 19.84 29.6923 19.84C29.2443 19.84 28.9563 19.7013 28.8283 19.424C28.8283 20.192 28.9776 20.7573 29.2763 21.12C29.5963 21.4827 30.0976 21.664 30.7803 21.664ZM43.543 24.192C42.519 24.192 41.687 23.872 41.047 23.232C40.4283 22.592 40.119 21.632 40.119 20.352C40.119 19.8187 40.2043 19.1253 40.375 18.272L42.295 9.28H41.239L41.495 8H42.551L43.511 3.584L48.247 2.944L47.159 8H49.079L48.823 9.28H46.903L44.855 18.88C44.7697 19.2 44.727 19.5413 44.727 19.904C44.727 20.3307 44.823 20.64 45.015 20.832C45.2283 21.0027 45.5697 21.088 46.039 21.088C46.6577 21.088 47.2337 20.832 47.767 20.32C48.3003 19.7867 48.6843 19.104 48.919 18.272H50.263C49.4737 20.576 48.4603 22.144 47.223 22.976C45.9857 23.7867 44.759 24.192 43.543 24.192ZM52.7463 24.192C51.5303 24.192 50.5169 23.776 49.7063 22.944C48.8956 22.112 48.4902 20.8107 48.4902 19.04C48.4902 17.4613 48.7996 15.808 49.4183 14.08C50.0583 12.3307 50.9969 10.8587 52.2343 9.664C53.4929 8.448 54.9863 7.84 56.7143 7.84C57.5889 7.84 58.2396 7.98933 58.6663 8.288C59.0929 8.58667 59.3063 8.98133 59.3063 9.472V9.696L59.6583 8H64.2663L61.9623 18.88C61.8769 19.2 61.8343 19.5413 61.8343 19.904C61.8343 20.8213 62.2716 21.28 63.1463 21.28C63.7436 21.28 64.2556 21.0027 64.6823 20.448C65.1303 19.8933 65.4823 19.168 65.7383 18.272H67.0823C66.2929 20.576 65.3116 22.144 64.1383 22.976C62.9863 23.7867 61.8236 24.192 60.6503 24.192C59.7543 24.192 59.0289 23.9467 58.4743 23.456C57.9409 22.944 57.6209 22.208 57.5143 21.248C56.8956 22.1227 56.2023 22.8373 55.4343 23.392C54.6876 23.9253 53.7916 24.192 52.7463 24.192ZM54.8263 21.088C55.3596 21.088 55.8823 20.8427 56.3943 20.352C56.9276 19.84 57.2903 19.1467 57.4823 18.272L59.0183 11.04C59.0183 10.7627 58.9116 10.496 58.6983 10.24C58.4849 9.96267 58.1543 9.824 57.7063 9.824C56.8529 9.824 56.0849 10.3253 55.4023 11.328C54.7196 12.3093 54.1863 13.504 53.8023 14.912C53.4183 16.2987 53.2263 17.5253 53.2263 18.592C53.2263 19.6587 53.3756 20.3413 53.6743 20.64C53.9943 20.9387 54.3783 21.088 54.8263 21.088ZM71.414 32C70.39 32 69.5367 31.7333 68.854 31.2C68.1713 30.6667 67.83 29.8987 67.83 28.896C67.83 27.68 68.3207 26.6987 69.302 25.952C70.2833 25.2267 71.5313 24.6187 73.046 24.128L73.43 22.432C72.342 23.6053 71.062 24.192 69.59 24.192C68.374 24.192 67.3607 23.776 66.55 22.944C65.7393 22.112 65.334 20.8107 65.334 19.04C65.334 17.4613 65.6433 15.808 66.262 14.08C66.902 12.3307 67.8407 10.8587 69.078 9.664C70.3367 8.448 71.83 7.84 73.558 7.84C74.4327 7.84 75.0833 7.98933 75.51 8.288C75.9367 8.58667 76.15 8.98133 76.15 9.472V9.664L76.502 8H81.11L77.942 22.848C78.966 22.5067 79.7873 21.9947 80.406 21.312C81.0247 20.6293 81.5473 19.616 81.974 18.272H83.318C82.742 20.1707 81.9633 21.568 80.982 22.464C80.0007 23.3387 78.8913 23.936 77.654 24.256L77.174 26.56C76.7473 28.6293 76.0113 30.048 74.966 30.816C73.9207 31.6053 72.7367 32 71.414 32ZM71.67 21.088C72.1607 21.088 72.662 20.864 73.174 20.416C73.686 19.968 74.038 19.36 74.23 18.592L75.862 11.008C75.862 10.752 75.7553 10.496 75.542 10.24C75.3287 9.96267 74.998 9.824 74.55 9.824C73.6967 9.824 72.9287 10.3253 72.246 11.328C71.5633 12.3093 71.03 13.504 70.646 14.912C70.262 16.2987 70.07 17.5253 70.07 18.592C70.07 19.6587 70.2193 20.3413 70.518 20.64C70.838 20.9387 71.222 21.088 71.67 21.088ZM70.678 29.504C71.0407 29.504 71.3927 29.2587 71.734 28.768C72.0753 28.2773 72.342 27.5733 72.534 26.656L72.726 25.728C70.6353 26.496 69.59 27.4027 69.59 28.448C69.59 28.7253 69.686 28.9707 69.878 29.184C70.07 29.3973 70.3367 29.504 70.678 29.504ZM84.1448 8H88.7528L88.3368 9.984C89.0621 9.344 89.7128 8.85333 90.2888 8.512C90.8861 8.17067 91.5261 8 92.2088 8C92.8914 8 93.4248 8.23467 93.8088 8.704C94.2141 9.17333 94.4168 9.73867 94.4168 10.4C94.4168 11.0187 94.2141 11.5627 93.8088 12.032C93.4034 12.5013 92.8381 12.736 92.1128 12.736C91.6434 12.736 91.3234 12.6293 91.1528 12.416C91.0034 12.1813 90.8861 11.8507 90.8008 11.424C90.7368 11.1467 90.6728 10.944 90.6088 10.816C90.5448 10.688 90.4274 10.624 90.2568 10.624C89.8088 10.624 89.4248 10.72 89.1048 10.912C88.8061 11.0827 88.4114 11.392 87.9208 11.84L85.3608 24H80.7527L84.1448 8ZM97.84 24.192C96.624 24.192 95.6107 23.776 94.8 22.944C93.9893 22.112 93.584 20.8107 93.584 19.04C93.584 17.4613 93.8933 15.808 94.512 14.08C95.152 12.3307 96.0907 10.8587 97.328 9.664C98.5867 8.448 100.08 7.84 101.808 7.84C102.683 7.84 103.333 7.98933 103.76 8.288C104.187 8.58667 104.4 8.98133 104.4 9.472V9.696L104.752 8H109.36L107.056 18.88C106.971 19.2 106.928 19.5413 106.928 19.904C106.928 20.8213 107.365 21.28 108.24 21.28C108.837 21.28 109.349 21.0027 109.776 20.448C110.224 19.8933 110.576 19.168 110.832 18.272H112.176C111.387 20.576 110.405 22.144 109.232 22.976C108.08 23.7867 106.917 24.192 105.744 24.192C104.848 24.192 104.123 23.9467 103.568 23.456C103.035 22.944 102.715 22.208 102.608 21.248C101.989 22.1227 101.296 22.8373 100.528 23.392C99.7813 23.9253 98.8853 24.192 97.84 24.192ZM99.92 21.088C100.453 21.088 100.976 20.8427 101.488 20.352C102.021 19.84 102.384 19.1467 102.576 18.272L104.112 11.04C104.112 10.7627 104.005 10.496 103.792 10.24C103.579 9.96267 103.248 9.824 102.8 9.824C101.947 9.824 101.179 10.3253 100.496 11.328C99.8133 12.3093 99.28 13.504 98.896 14.912C98.512 16.2987 98.32 17.5253 98.32 18.592C98.32 19.6587 98.4693 20.3413 98.768 20.64C99.088 20.9387 99.472 21.088 99.92 21.088ZM130.3 24.192C128.998 24.192 128.038 23.8507 127.42 23.168C126.822 22.464 126.524 21.6 126.524 20.576C126.524 20.128 126.577 19.6267 126.684 19.072C126.79 18.496 126.897 17.9413 127.004 17.408C127.132 16.8747 127.217 16.5333 127.26 16.384C127.43 15.6373 127.59 14.9013 127.74 14.176C127.889 13.4507 127.964 12.864 127.964 12.416C127.964 11.328 127.58 10.784 126.812 10.784C126.257 10.784 125.766 11.0613 125.34 11.616C124.913 12.1493 124.572 12.8533 124.316 13.728L122.14 24H117.532L119.868 12.96C119.932 12.704 119.964 12.4373 119.964 12.16C119.964 11.2213 119.644 10.752 119.004 10.752C118.406 10.752 117.884 11.0293 117.436 11.584C117.009 12.1173 116.668 12.832 116.412 13.728L114.236 24H109.628L113.02 8H117.628L117.276 9.664C118.364 8.448 119.665 7.84 121.18 7.84C123.057 7.84 124.156 8.75733 124.476 10.592C125.649 8.77867 127.132 7.872 128.924 7.872C130.012 7.872 130.876 8.17067 131.516 8.768C132.156 9.36533 132.476 10.272 132.476 11.488C132.476 12.1067 132.401 12.8 132.252 13.568C132.102 14.3147 131.889 15.232 131.612 16.32C131.441 16.9813 131.281 17.632 131.132 18.272C131.004 18.8907 130.94 19.3813 130.94 19.744C130.94 20.1707 131.036 20.5013 131.228 20.736C131.42 20.9707 131.75 21.088 132.22 21.088C132.86 21.088 133.372 20.864 133.756 20.416C134.14 19.9467 134.524 19.232 134.908 18.272H136.252C135.462 20.6187 134.545 22.1973 133.5 23.008C132.476 23.7973 131.409 24.192 130.3 24.192ZM138.554 24.192C137.53 24.192 136.666 24 135.962 23.616C135.258 23.2107 134.736 22.6987 134.394 22.08C134.053 21.44 133.882 20.7787 133.882 20.096C133.882 19.392 134.053 18.784 134.394 18.272C134.714 17.7387 135.109 17.3547 135.578 17.12C136.41 15.6267 137.136 14.1227 137.754 12.608C138.373 11.072 138.96 9.41867 139.514 7.648L144.25 7.008C144.357 9.73867 144.538 12.6933 144.794 15.872C144.901 17.152 144.954 18.08 144.954 18.656C144.954 19.9573 144.624 21.024 143.962 21.856C143.301 22.688 142.48 23.2853 141.498 23.648C140.538 24.0107 139.557 24.192 138.554 24.192ZM137.53 21.664C138.32 21.664 138.981 21.4293 139.514 20.96C140.048 20.4907 140.314 19.7333 140.314 18.688C140.314 18.048 140.25 17.152 140.122 16C139.909 13.568 139.77 11.936 139.706 11.104C139.194 12.7893 138.33 14.8053 137.114 17.152C137.605 17.408 137.85 17.7813 137.85 18.272C137.85 18.6773 137.712 19.04 137.434 19.36C137.178 19.68 136.848 19.84 136.442 19.84C135.994 19.84 135.706 19.7013 135.578 19.424C135.578 20.192 135.728 20.7573 136.026 21.12C136.346 21.4827 136.848 21.664 137.53 21.664Z" fill="#231F20"/>
<path d="M148.551 24.128C147.847 24.128 147.25 23.8827 146.759 23.392C146.269 22.9013 146.023 22.304 146.023 21.6C146.023 20.896 146.269 20.2987 146.759 19.808C147.25 19.296 147.847 19.04 148.551 19.04C149.255 19.04 149.853 19.296 150.343 19.808C150.855 20.2987 151.111 20.896 151.111 21.6C151.111 22.304 150.855 22.9013 150.343 23.392C149.853 23.8827 149.255 24.128 148.551 24.128ZM158.11 24.128C156.531 24.128 155.283 23.7227 154.366 22.912C153.448 22.1013 152.989 20.8213 152.989 19.072C152.989 17.6213 153.288 16.0107 153.886 14.24C154.483 12.4693 155.443 10.944 156.766 9.664C158.088 8.36267 159.752 7.712 161.758 7.712C164.488 7.712 165.854 9.41867 165.854 12.832V12.864C165.918 12.8853 166.035 12.896 166.206 12.896C166.91 12.896 167.72 12.7147 168.638 12.352C169.555 11.968 170.387 11.5093 171.134 10.976L171.422 11.84C170.803 12.5013 169.992 13.0667 168.99 13.536C168.008 13.984 166.931 14.304 165.758 14.496C165.587 16.4373 165.15 18.1333 164.446 19.584C163.742 21.0347 162.835 22.1547 161.726 22.944C160.616 23.7333 159.411 24.128 158.11 24.128ZM159.39 21.248C159.902 21.248 160.414 20.96 160.926 20.384C161.438 19.7867 161.886 18.9867 162.27 17.984C162.654 16.96 162.931 15.8293 163.102 14.592C162.526 14.464 162.238 14.016 162.238 13.248C162.238 12.3733 162.568 11.7973 163.23 11.52C163.187 10.816 163.08 10.336 162.91 10.08C162.739 9.80267 162.44 9.664 162.014 9.664C161.31 9.664 160.627 10.176 159.966 11.2C159.304 12.224 158.771 13.4507 158.366 14.88C157.96 16.3093 157.758 17.568 157.758 18.656C157.758 19.68 157.875 20.3733 158.11 20.736C158.344 21.0773 158.771 21.248 159.39 21.248ZM179.052 24.192C177.751 24.192 176.791 23.8507 176.172 23.168C175.575 22.464 175.276 21.6 175.276 20.576C175.276 20.128 175.329 19.6267 175.436 19.072C175.543 18.496 175.649 17.9413 175.756 17.408C175.884 16.8747 175.969 16.5333 176.012 16.384C176.183 15.6373 176.343 14.9013 176.492 14.176C176.641 13.4507 176.716 12.864 176.716 12.416C176.716 11.328 176.332 10.784 175.564 10.784C175.009 10.784 174.519 11.0613 174.092 11.616C173.665 12.1493 173.324 12.8533 173.068 13.728L170.892 24H166.284L169.676 8H174.284L173.932 9.664C174.999 8.46933 176.247 7.872 177.676 7.872C178.764 7.872 179.628 8.17067 180.268 8.768C180.908 9.36533 181.228 10.272 181.228 11.488C181.228 12.1067 181.153 12.8 181.004 13.568C180.855 14.3147 180.641 15.232 180.364 16.32C180.193 16.9813 180.033 17.632 179.884 18.272C179.756 18.8907 179.692 19.3813 179.692 19.744C179.692 20.1707 179.788 20.5013 179.98 20.736C180.172 20.9707 180.503 21.088 180.972 21.088C181.612 21.088 182.124 20.864 182.508 20.416C182.892 19.9467 183.276 19.232 183.66 18.272H185.004C184.215 20.6187 183.297 22.1973 182.252 23.008C181.228 23.7973 180.161 24.192 179.052 24.192ZM188.168 24.192C186.611 24.192 185.395 23.7867 184.52 22.976C183.646 22.144 183.208 20.8533 183.208 19.104C183.208 17.632 183.496 16.0107 184.072 14.24C184.648 12.4693 185.587 10.944 186.888 9.664C188.19 8.36267 189.843 7.712 191.848 7.712C194.195 7.712 195.368 8.736 195.368 10.784C195.368 11.9787 195.027 13.0773 194.344 14.08C193.662 15.0827 192.755 15.8933 191.624 16.512C190.494 17.1093 189.288 17.4507 188.008 17.536C187.966 18.0053 187.944 18.3253 187.944 18.496C187.944 20.2667 188.606 21.152 189.928 21.152C190.526 21.152 191.166 20.992 191.848 20.672C192.531 20.352 193.15 19.9467 193.704 19.456C193.128 22.6133 191.283 24.192 188.168 24.192ZM188.232 16C189.043 15.9787 189.8 15.712 190.504 15.2C191.23 14.688 191.806 14.0373 192.232 13.248C192.68 12.4373 192.904 11.5947 192.904 10.72C192.904 9.84533 192.638 9.408 192.104 9.408C191.358 9.408 190.611 10.0907 189.864 11.456C189.139 12.8 188.595 14.3147 188.232 16Z" fill="url(#paint0_linear)"/>
<defs>
<linearGradient id="paint0_linear" x1="161.7" y1="-2.75" x2="152.214" y2="49.376" gradientUnits="userSpaceOnUse">
<stop offset="0.25" stop-color="#C52E92"/>
<stop offset="0.489583" stop-color="#FA9E4C"/>
</linearGradient>
</defs>
</svg>
